EESchema Schematic File Version 4
LIBS:Pinky-cache
EELAYER 26 0
EELAYER END
$Descr A4 11693 8268
encoding utf-8
Sheet 2 2
Title "Pinky Matrix"
Date "2020-04-21"
Rev "1.0"
Comp "./qusw"
Comment1 ""
Comment2 ""
Comment3 ""
Comment4 ""
$EndDescr
$Comp
L MX_Alps_Hybrid:MX-NoLED MX00
U 1 1 5EA53183
P 3750 2700
F 0 "MX00" H 3725 2875 39  0000 C CNN
F 1 "MX-1.5u" H 3725 2825 20  0000 C CNN
F 2 "SW_Cherry_MX:SW_Cherry_MX1A_1.50u_PCB" H 3125 2675 60  0001 C CNN
F 3 "" H 3125 2675 60  0001 C CNN
	1    3750 2700
	1    0    0    -1  
$EndComp
$Comp
L Device:D_Small D00
U 1 1 5EA5560C
P 3700 2950
F 0 "D00" V 3625 2925 50  0000 R CNN
F 1 "1N4148" H 3750 3025 20  0000 R CNN
F 2 "D_SOD-123:D_SOD-123" V 3700 2950 50  0001 C CNN
F 3 "~" V 3700 2950 50  0001 C CNN
	1    3700 2950
	0    -1   -1   0   
$EndComp
$Comp
L MX_Alps_Hybrid:MX-NoLED MX01
U 1 1 5EA75C46
P 4075 2700
F 0 "MX01" H 4050 2875 39  0000 C CNN
F 1 "MX-1u" H 4050 2825 20  0000 C CNN
F 2 "SW_Cherry_MX:SW_Cherry_MX1A_1.00u_PCB" H 3450 2675 60  0001 C CNN
F 3 "" H 3450 2675 60  0001 C CNN
	1    4075 2700
	1    0    0    -1  
$EndComp
$Comp
L Device:D_Small D01
U 1 1 5EA75C4D
P 4025 2950
F 0 "D01" V 3950 2925 50  0000 R CNN
F 1 "1N4148" H 4075 3025 20  0000 R CNN
F 2 "D_SOD-123:D_SOD-123" V 4025 2950 50  0001 C CNN
F 3 "~" V 4025 2950 50  0001 C CNN
	1    4025 2950
	0    -1   -1   0   
$EndComp
Text GLabel 3900 2300 0    50   Input ~ 0
COL0
$Comp
L MX_Alps_Hybrid:MX-NoLED MX02
U 1 1 5EA891FF
P 4400 2700
F 0 "MX02" H 4375 2875 39  0000 C CNN
F 1 "MX-1u" H 4375 2825 20  0000 C CNN
F 2 "SW_Cherry_MX:SW_Cherry_MX1A_1.00u_PCB" H 3775 2675 60  0001 C CNN
F 3 "" H 3775 2675 60  0001 C CNN
	1    4400 2700
	1    0    0    -1  
$EndComp
$Comp
L Device:D_Small D02
U 1 1 5EA89206
P 4350 2950
F 0 "D02" V 4275 2925 50  0000 R CNN
F 1 "1N4148" H 4400 3025 20  0000 R CNN
F 2 "D_SOD-123:D_SOD-123" V 4350 2950 50  0001 C CNN
F 3 "~" V 4350 2950 50  0001 C CNN
	1    4350 2950
	0    -1   -1   0   
$EndComp
$Comp
L MX_Alps_Hybrid:MX-NoLED MX03
U 1 1 5EA8920D
P 4725 2700
F 0 "MX03" H 4700 2875 39  0000 C CNN
F 1 "MX-1u" H 4700 2825 20  0000 C CNN
F 2 "SW_Cherry_MX:SW_Cherry_MX1A_1.00u_PCB" H 4100 2675 60  0001 C CNN
F 3 "" H 4100 2675 60  0001 C CNN
	1    4725 2700
	1    0    0    -1  
$EndComp
$Comp
L Device:D_Small D03
U 1 1 5EA89214
P 4675 2950
F 0 "D03" V 4600 2925 50  0000 R CNN
F 1 "1N4148" H 4725 3025 20  0000 R CNN
F 2 "local:D_SOD-123" V 4675 2950 50  0001 C CNN
F 3 "~" V 4675 2950 50  0001 C CNN
	1    4675 2950
	0    -1   -1   0   
$EndComp
$Comp
L MX_Alps_Hybrid:MX-NoLED MX04
U 1 1 5EA90564
P 5050 2700
F 0 "MX04" H 5025 2875 39  0000 C CNN
F 1 "MX-1u" H 5025 2825 20  0000 C CNN
F 2 "SW_Cherry_MX:SW_Cherry_MX1A_1.00u_PCB" H 4425 2675 60  0001 C CNN
F 3 "" H 4425 2675 60  0001 C CNN
	1    5050 2700
	1    0    0    -1  
$EndComp
$Comp
L Device:D_Small D04
U 1 1 5EA9056B
P 5000 2950
F 0 "D04" V 4925 2925 50  0000 R CNN
F 1 "1N4148" H 5050 3025 20  0000 R CNN
F 2 "local:D_SOD-123" V 5000 2950 50  0001 C CNN
F 3 "~" V 5000 2950 50  0001 C CNN
	1    5000 2950
	0    -1   -1   0   
$EndComp
$Comp
L MX_Alps_Hybrid:MX-NoLED MX05
U 1 1 5EA90572
P 5375 2700
F 0 "MX05" H 5350 2875 39  0000 C CNN
F 1 "MX-1u" H 5350 2825 20  0000 C CNN
F 2 "SW_Cherry_MX:SW_Cherry_MX1A_1.00u_PCB" H 4750 2675 60  0001 C CNN
F 3 "" H 4750 2675 60  0001 C CNN
	1    5375 2700
	1    0    0    -1  
$EndComp
$Comp
L Device:D_Small D05
U 1 1 5EA90579
P 5325 2950
F 0 "D05" V 5250 2925 50  0000 R CNN
F 1 "1N4148" H 5375 3025 20  0000 R CNN
F 2 "local:D_SOD-123" V 5325 2950 50  0001 C CNN
F 3 "~" V 5325 2950 50  0001 C CNN
	1    5325 2950
	0    -1   -1   0   
$EndComp
$Comp
L MX_Alps_Hybrid:MX-NoLED MX06
U 1 1 5EA90580
P 5700 2700
F 0 "MX06" H 5675 2875 39  0000 C CNN
F 1 "MX-1u" H 5675 2825 20  0000 C CNN
F 2 "SW_Cherry_MX:SW_Cherry_MX1A_1.00u_PCB" H 5075 2675 60  0001 C CNN
F 3 "" H 5075 2675 60  0001 C CNN
	1    5700 2700
	1    0    0    -1  
$EndComp
$Comp
L Device:D_Small D06
U 1 1 5EA90587
P 5650 2950
F 0 "D06" V 5575 2925 50  0000 R CNN
F 1 "1N4148" H 5700 3025 20  0000 R CNN
F 2 "local:D_SOD-123" V 5650 2950 50  0001 C CNN
F 3 "~" V 5650 2950 50  0001 C CNN
	1    5650 2950
	0    -1   -1   0   
$EndComp
$Comp
L MX_Alps_Hybrid:MX-NoLED MX07
U 1 1 5EA9058E
P 6025 2700
F 0 "MX07" H 6000 2875 39  0000 C CNN
F 1 "MX-1u" H 6000 2825 20  0000 C CNN
F 2 "SW_Cherry_MX:SW_Cherry_MX1A_1.00u_PCB" H 5400 2675 60  0001 C CNN
F 3 "" H 5400 2675 60  0001 C CNN
	1    6025 2700
	1    0    0    -1  
$EndComp
$Comp
L Device:D_Small D07
U 1 1 5EA90595
P 5975 2950
F 0 "D07" V 5900 2925 50  0000 R CNN
F 1 "1N4148" H 6025 3025 20  0000 R CNN
F 2 "local:D_SOD-123" V 5975 2950 50  0001 C CNN
F 3 "~" V 5975 2950 50  0001 C CNN
	1    5975 2950
	0    -1   -1   0   
$EndComp
$Comp
L MX_Alps_Hybrid:MX-NoLED MX08
U 1 1 5EA96F8E
P 6350 2700
F 0 "MX08" H 6325 2875 39  0000 C CNN
F 1 "MX-1u" H 6325 2825 20  0000 C CNN
F 2 "SW_Cherry_MX:SW_Cherry_MX1A_1.00u_PCB" H 5725 2675 60  0001 C CNN
F 3 "" H 5725 2675 60  0001 C CNN
	1    6350 2700
	1    0    0    -1  
$EndComp
$Comp
L Device:D_Small D08
U 1 1 5EA96F95
P 6300 2950
F 0 "D08" V 6225 2925 50  0000 R CNN
F 1 "1N4148" H 6350 3025 20  0000 R CNN
F 2 "local:D_SOD-123" V 6300 2950 50  0001 C CNN
F 3 "~" V 6300 2950 50  0001 C CNN
	1    6300 2950
	0    -1   -1   0   
$EndComp
$Comp
L MX_Alps_Hybrid:MX-NoLED MX09
U 1 1 5EA96F9C
P 6675 2700
F 0 "MX09" H 6650 2875 39  0000 C CNN
F 1 "MX-1u" H 6650 2825 20  0000 C CNN
F 2 "SW_Cherry_MX:SW_Cherry_MX1A_1.00u_PCB" H 6050 2675 60  0001 C CNN
F 3 "" H 6050 2675 60  0001 C CNN
	1    6675 2700
	1    0    0    -1  
$EndComp
$Comp
L Device:D_Small D09
U 1 1 5EA96FA3
P 6625 2950
F 0 "D09" V 6550 2925 50  0000 R CNN
F 1 "1N4148" H 6675 3025 20  0000 R CNN
F 2 "local:D_SOD-123" V 6625 2950 50  0001 C CNN
F 3 "~" V 6625 2950 50  0001 C CNN
	1    6625 2950
	0    -1   -1   0   
$EndComp
$Comp
L MX_Alps_Hybrid:MX-NoLED MX010
U 1 1 5EA96FAA
P 7000 2700
F 0 "MX010" H 6975 2875 39  0000 C CNN
F 1 "MX-1u" H 6975 2825 20  0000 C CNN
F 2 "SW_Cherry_MX:SW_Cherry_MX1A_1.00u_PCB" H 6375 2675 60  0001 C CNN
F 3 "" H 6375 2675 60  0001 C CNN
	1    7000 2700
	1    0    0    -1  
$EndComp
$Comp
L Device:D_Small D010
U 1 1 5EA96FB1
P 6950 2950
F 0 "D010" V 6875 2925 50  0000 R CNN
F 1 "1N4148" H 7000 3025 20  0000 R CNN
F 2 "local:D_SOD-123" V 6950 2950 50  0001 C CNN
F 3 "~" V 6950 2950 50  0001 C CNN
	1    6950 2950
	0    -1   -1   0   
$EndComp
$Comp
L MX_Alps_Hybrid:MX-NoLED MX011
U 1 1 5EA96FB8
P 7325 2700
F 0 "MX011" H 7300 2875 39  0000 C CNN
F 1 "MX-1u" H 7300 2825 20  0000 C CNN
F 2 "SW_Cherry_MX:SW_Cherry_MX1A_1.00u_PCB" H 6700 2675 60  0001 C CNN
F 3 "" H 6700 2675 60  0001 C CNN
	1    7325 2700
	1    0    0    -1  
$EndComp
$Comp
L Device:D_Small D011
U 1 1 5EA96FBF
P 7275 2950
F 0 "D011" V 7200 2925 50  0000 R CNN
F 1 "1N4148" H 7325 3025 20  0000 R CNN
F 2 "local:D_SOD-123" V 7275 2950 50  0001 C CNN
F 3 "~" V 7275 2950 50  0001 C CNN
	1    7275 2950
	0    -1   -1   0   
$EndComp
$Comp
L MX_Alps_Hybrid:MX-NoLED MX10
U 1 1 5EA9F588
P 3750 3350
F 0 "MX10" H 3725 3525 39  0000 C CNN
F 1 "MX-1u" H 3725 3475 20  0000 C CNN
F 2 "SW_Cherry_MX:SW_Cherry_MX1A_1.00u_PCB" H 3125 3325 60  0001 C CNN
F 3 "" H 3125 3325 60  0001 C CNN
	1    3750 3350
	1    0    0    -1  
$EndComp
$Comp
L Device:D_Small D10
U 1 1 5EA9F58F
P 3700 3600
F 0 "D10" V 3625 3575 50  0000 R CNN
F 1 "1N4148" H 3750 3675 20  0000 R CNN
F 2 "local:D_SOD-123" V 3700 3600 50  0001 C CNN
F 3 "~" V 3700 3600 50  0001 C CNN
	1    3700 3600
	0    -1   -1   0   
$EndComp
$Comp
L MX_Alps_Hybrid:MX-NoLED MX11
U 1 1 5EAA6B20
P 4075 3350
F 0 "MX11" H 4050 3525 39  0000 C CNN
F 1 "MX-1u" H 4050 3475 20  0000 C CNN
F 2 "SW_Cherry_MX:SW_Cherry_MX1A_1.00u_PCB" H 3450 3325 60  0001 C CNN
F 3 "" H 3450 3325 60  0001 C CNN
	1    4075 3350
	1    0    0    -1  
$EndComp
$Comp
L Device:D_Small D11
U 1 1 5EAA6B27
P 4025 3600
F 0 "D11" V 3950 3575 50  0000 R CNN
F 1 "1N4148" H 4075 3675 20  0000 R CNN
F 2 "local:D_SOD-123" V 4025 3600 50  0001 C CNN
F 3 "~" V 4025 3600 50  0001 C CNN
	1    4025 3600
	0    -1   -1   0   
$EndComp
$Comp
L MX_Alps_Hybrid:MX-NoLED MX12
U 1 1 5EAA6B2E
P 4400 3350
F 0 "MX12" H 4375 3525 39  0000 C CNN
F 1 "MX-1u" H 4375 3475 20  0000 C CNN
F 2 "SW_Cherry_MX:SW_Cherry_MX1A_1.00u_PCB" H 3775 3325 60  0001 C CNN
F 3 "" H 3775 3325 60  0001 C CNN
	1    4400 3350
	1    0    0    -1  
$EndComp
$Comp
L Device:D_Small D12
U 1 1 5EAA6B35
P 4350 3600
F 0 "D12" V 4275 3575 50  0000 R CNN
F 1 "1N4148" H 4400 3675 20  0000 R CNN
F 2 "local:D_SOD-123" V 4350 3600 50  0001 C CNN
F 3 "~" V 4350 3600 50  0001 C CNN
	1    4350 3600
	0    -1   -1   0   
$EndComp
$Comp
L MX_Alps_Hybrid:MX-NoLED MX13
U 1 1 5EAA6B3C
P 4725 3350
F 0 "MX13" H 4700 3525 39  0000 C CNN
F 1 "MX-1u" H 4700 3475 20  0000 C CNN
F 2 "SW_Cherry_MX:SW_Cherry_MX1A_1.00u_PCB" H 4100 3325 60  0001 C CNN
F 3 "" H 4100 3325 60  0001 C CNN
	1    4725 3350
	1    0    0    -1  
$EndComp
$Comp
L Device:D_Small D13
U 1 1 5EAA6B43
P 4675 3600
F 0 "D13" V 4600 3575 50  0000 R CNN
F 1 "1N4148" H 4725 3675 20  0000 R CNN
F 2 "local:D_SOD-123" V 4675 3600 50  0001 C CNN
F 3 "~" V 4675 3600 50  0001 C CNN
	1    4675 3600
	0    -1   -1   0   
$EndComp
$Comp
L MX_Alps_Hybrid:MX-NoLED MX14
U 1 1 5EAA6B4A
P 5050 3350
F 0 "MX14" H 5025 3525 39  0000 C CNN
F 1 "MX-1u" H 5025 3475 20  0000 C CNN
F 2 "SW_Cherry_MX:SW_Cherry_MX1A_1.00u_PCB" H 4425 3325 60  0001 C CNN
F 3 "" H 4425 3325 60  0001 C CNN
	1    5050 3350
	1    0    0    -1  
$EndComp
$Comp
L Device:D_Small D14
U 1 1 5EAA6B51
P 5000 3600
F 0 "D14" V 4925 3575 50  0000 R CNN
F 1 "1N4148" H 5050 3675 20  0000 R CNN
F 2 "local:D_SOD-123" V 5000 3600 50  0001 C CNN
F 3 "~" V 5000 3600 50  0001 C CNN
	1    5000 3600
	0    -1   -1   0   
$EndComp
$Comp
L MX_Alps_Hybrid:MX-NoLED MX15
U 1 1 5EAA6B58
P 5375 3350
F 0 "MX15" H 5350 3525 39  0000 C CNN
F 1 "MX-1u" H 5350 3475 20  0000 C CNN
F 2 "SW_Cherry_MX:SW_Cherry_MX1A_1.00u_PCB" H 4750 3325 60  0001 C CNN
F 3 "" H 4750 3325 60  0001 C CNN
	1    5375 3350
	1    0    0    -1  
$EndComp
$Comp
L Device:D_Small D15
U 1 1 5EAA6B5F
P 5325 3600
F 0 "D15" V 5250 3575 50  0000 R CNN
F 1 "1N4148" H 5375 3675 20  0000 R CNN
F 2 "local:D_SOD-123" V 5325 3600 50  0001 C CNN
F 3 "~" V 5325 3600 50  0001 C CNN
	1    5325 3600
	0    -1   -1   0   
$EndComp
$Comp
L MX_Alps_Hybrid:MX-NoLED MX16
U 1 1 5EAA6B66
P 5700 3350
F 0 "MX16" H 5675 3525 39  0000 C CNN
F 1 "MX-1u" H 5675 3475 20  0000 C CNN
F 2 "SW_Cherry_MX:SW_Cherry_MX1A_1.00u_PCB" H 5075 3325 60  0001 C CNN
F 3 "" H 5075 3325 60  0001 C CNN
	1    5700 3350
	1    0    0    -1  
$EndComp
$Comp
L Device:D_Small D16
U 1 1 5EAA6B6D
P 5650 3600
F 0 "D16" V 5575 3575 50  0000 R CNN
F 1 "1N4148" H 5700 3675 20  0000 R CNN
F 2 "local:D_SOD-123" V 5650 3600 50  0001 C CNN
F 3 "~" V 5650 3600 50  0001 C CNN
	1    5650 3600
	0    -1   -1   0   
$EndComp
$Comp
L MX_Alps_Hybrid:MX-NoLED MX17
U 1 1 5EAA6B74
P 6025 3350
F 0 "MX17" H 6000 3525 39  0000 C CNN
F 1 "MX-1u" H 6000 3475 20  0000 C CNN
F 2 "SW_Cherry_MX:SW_Cherry_MX1A_1.00u_PCB" H 5400 3325 60  0001 C CNN
F 3 "" H 5400 3325 60  0001 C CNN
	1    6025 3350
	1    0    0    -1  
$EndComp
$Comp
L Device:D_Small D17
U 1 1 5EAA6B7B
P 5975 3600
F 0 "D17" V 5900 3575 50  0000 R CNN
F 1 "1N4148" H 6025 3675 20  0000 R CNN
F 2 "local:D_SOD-123" V 5975 3600 50  0001 C CNN
F 3 "~" V 5975 3600 50  0001 C CNN
	1    5975 3600
	0    -1   -1   0   
$EndComp
$Comp
L MX_Alps_Hybrid:MX-NoLED MX18
U 1 1 5EAA6B82
P 6350 3350
F 0 "MX18" H 6325 3525 39  0000 C CNN
F 1 "MX-1u" H 6325 3475 20  0000 C CNN
F 2 "SW_Cherry_MX:SW_Cherry_MX1A_1.00u_PCB" H 5725 3325 60  0001 C CNN
F 3 "" H 5725 3325 60  0001 C CNN
	1    6350 3350
	1    0    0    -1  
$EndComp
$Comp
L Device:D_Small D18
U 1 1 5EAA6B89
P 6300 3600
F 0 "D18" V 6225 3575 50  0000 R CNN
F 1 "1N4148" H 6350 3675 20  0000 R CNN
F 2 "local:D_SOD-123" V 6300 3600 50  0001 C CNN
F 3 "~" V 6300 3600 50  0001 C CNN
	1    6300 3600
	0    -1   -1   0   
$EndComp
$Comp
L MX_Alps_Hybrid:MX-NoLED MX19
U 1 1 5EAA6B90
P 6675 3350
F 0 "MX19" H 6650 3525 39  0000 C CNN
F 1 "MX-1u" H 6650 3475 20  0000 C CNN
F 2 "SW_Cherry_MX:SW_Cherry_MX1A_1.00u_PCB" H 6050 3325 60  0001 C CNN
F 3 "" H 6050 3325 60  0001 C CNN
	1    6675 3350
	1    0    0    -1  
$EndComp
$Comp
L Device:D_Small D19
U 1 1 5EAA6B97
P 6625 3600
F 0 "D19" V 6550 3575 50  0000 R CNN
F 1 "1N4148" H 6675 3675 20  0000 R CNN
F 2 "local:D_SOD-123" V 6625 3600 50  0001 C CNN
F 3 "~" V 6625 3600 50  0001 C CNN
	1    6625 3600
	0    -1   -1   0   
$EndComp
$Comp
L MX_Alps_Hybrid:MX-NoLED MX110
U 1 1 5EAA6B9E
P 7000 3350
F 0 "MX110" H 6975 3525 39  0000 C CNN
F 1 "MX-1u" H 6975 3475 20  0000 C CNN
F 2 "SW_Cherry_MX:SW_Cherry_MX1A_1.00u_PCB" H 6375 3325 60  0001 C CNN
F 3 "" H 6375 3325 60  0001 C CNN
	1    7000 3350
	1    0    0    -1  
$EndComp
$Comp
L Device:D_Small D110
U 1 1 5EAA6BA5
P 6950 3600
F 0 "D110" V 6875 3575 50  0000 R CNN
F 1 "1N4148" H 7000 3675 20  0000 R CNN
F 2 "local:D_SOD-123" V 6950 3600 50  0001 C CNN
F 3 "~" V 6950 3600 50  0001 C CNN
	1    6950 3600
	0    -1   -1   0   
$EndComp
$Comp
L MX_Alps_Hybrid:MX-NoLED MX111
U 1 1 5EAA6BAC
P 7325 3350
F 0 "MX111" H 7300 3525 39  0000 C CNN
F 1 "MX-1u" H 7300 3475 20  0000 C CNN
F 2 "SW_Cherry_MX:SW_Cherry_MX1A_1.00u_PCB" H 6700 3325 60  0001 C CNN
F 3 "" H 6700 3325 60  0001 C CNN
	1    7325 3350
	1    0    0    -1  
$EndComp
$Comp
L Device:D_Small D111
U 1 1 5EAA6BB3
P 7275 3600
F 0 "D111" V 7200 3575 50  0000 R CNN
F 1 "1N4148" H 7325 3675 20  0000 R CNN
F 2 "local:D_SOD-123" V 7275 3600 50  0001 C CNN
F 3 "~" V 7275 3600 50  0001 C CNN
	1    7275 3600
	0    -1   -1   0   
$EndComp
$Comp
L MX_Alps_Hybrid:MX-NoLED MX012
U 1 1 5EAB17BD
P 7650 2700
F 0 "MX012" H 7625 2875 39  0000 C CNN
F 1 "MX-1u" H 7625 2825 20  0000 C CNN
F 2 "SW_Cherry_MX:SW_Cherry_MX1A_1.00u_PCB" H 7025 2675 60  0001 C CNN
F 3 "" H 7025 2675 60  0001 C CNN
	1    7650 2700
	1    0    0    -1  
$EndComp
$Comp
L Device:D_Small D012
U 1 1 5EAB17C4
P 7600 2950
F 0 "D012" V 7525 2925 50  0000 R CNN
F 1 "1N4148" H 7650 3025 20  0000 R CNN
F 2 "local:D_SOD-123" V 7600 2950 50  0001 C CNN
F 3 "~" V 7600 2950 50  0001 C CNN
	1    7600 2950
	0    -1   -1   0   
$EndComp
$Comp
L MX_Alps_Hybrid:MX-NoLED MX112
U 1 1 5EAB99FA
P 7650 3350
F 0 "MX112" H 7625 3525 39  0000 C CNN
F 1 "MX-1u" H 7625 3475 20  0000 C CNN
F 2 "SW_Cherry_MX:SW_Cherry_MX1A_1.00u_PCB" H 7025 3325 60  0001 C CNN
F 3 "" H 7025 3325 60  0001 C CNN
	1    7650 3350
	1    0    0    -1  
$EndComp
$Comp
L Device:D_Small D112
U 1 1 5EAB9A01
P 7600 3600
F 0 "D112" V 7525 3575 50  0000 R CNN
F 1 "1N4148" H 7650 3675 20  0000 R CNN
F 2 "local:D_SOD-123" V 7600 3600 50  0001 C CNN
F 3 "~" V 7600 3600 50  0001 C CNN
	1    7600 3600
	0    -1   -1   0   
$EndComp
$Comp
L MX_Alps_Hybrid:MX-NoLED MX20
U 1 1 5EAC0EEC
P 3750 4000
F 0 "MX20" H 3725 4175 39  0000 C CNN
F 1 "MX-1u" H 3725 4125 20  0000 C CNN
F 2 "SW_Cherry_MX:SW_Cherry_MX1A_1.00u_PCB" H 3125 3975 60  0001 C CNN
F 3 "" H 3125 3975 60  0001 C CNN
	1    3750 4000
	1    0    0    -1  
$EndComp
$Comp
L Device:D_Small D20
U 1 1 5EAC0EF3
P 3700 4250
F 0 "D20" V 3625 4225 50  0000 R CNN
F 1 "1N4148" H 3750 4325 20  0000 R CNN
F 2 "local:D_SOD-123" V 3700 4250 50  0001 C CNN
F 3 "~" V 3700 4250 50  0001 C CNN
	1    3700 4250
	0    -1   -1   0   
$EndComp
$Comp
L MX_Alps_Hybrid:MX-NoLED MX21
U 1 1 5EAC0EFA
P 4075 4000
F 0 "MX21" H 4050 4175 39  0000 C CNN
F 1 "MX-1u" H 4050 4125 20  0000 C CNN
F 2 "SW_Cherry_MX:SW_Cherry_MX1A_1.00u_PCB" H 3450 3975 60  0001 C CNN
F 3 "" H 3450 3975 60  0001 C CNN
	1    4075 4000
	1    0    0    -1  
$EndComp
$Comp
L Device:D_Small D21
U 1 1 5EAC0F01
P 4025 4250
F 0 "D21" V 3950 4225 50  0000 R CNN
F 1 "1N4148" H 4075 4325 20  0000 R CNN
F 2 "local:D_SOD-123" V 4025 4250 50  0001 C CNN
F 3 "~" V 4025 4250 50  0001 C CNN
	1    4025 4250
	0    -1   -1   0   
$EndComp
$Comp
L MX_Alps_Hybrid:MX-NoLED MX22
U 1 1 5EAC0F08
P 4400 4000
F 0 "MX22" H 4375 4175 39  0000 C CNN
F 1 "MX-1u" H 4375 4125 20  0000 C CNN
F 2 "SW_Cherry_MX:SW_Cherry_MX1A_1.00u_PCB" H 3775 3975 60  0001 C CNN
F 3 "" H 3775 3975 60  0001 C CNN
	1    4400 4000
	1    0    0    -1  
$EndComp
$Comp
L Device:D_Small D22
U 1 1 5EAC0F0F
P 4350 4250
F 0 "D22" V 4275 4225 50  0000 R CNN
F 1 "1N4148" H 4400 4325 20  0000 R CNN
F 2 "local:D_SOD-123" V 4350 4250 50  0001 C CNN
F 3 "~" V 4350 4250 50  0001 C CNN
	1    4350 4250
	0    -1   -1   0   
$EndComp
$Comp
L MX_Alps_Hybrid:MX-NoLED MX23
U 1 1 5EAC0F16
P 4725 4000
F 0 "MX23" H 4700 4175 39  0000 C CNN
F 1 "MX-1u" H 4700 4125 20  0000 C CNN
F 2 "SW_Cherry_MX:SW_Cherry_MX1A_1.00u_PCB" H 4100 3975 60  0001 C CNN
F 3 "" H 4100 3975 60  0001 C CNN
	1    4725 4000
	1    0    0    -1  
$EndComp
$Comp
L Device:D_Small D23
U 1 1 5EAC0F1D
P 4675 4250
F 0 "D23" V 4600 4225 50  0000 R CNN
F 1 "1N4148" H 4725 4325 20  0000 R CNN
F 2 "local:D_SOD-123" V 4675 4250 50  0001 C CNN
F 3 "~" V 4675 4250 50  0001 C CNN
	1    4675 4250
	0    -1   -1   0   
$EndComp
$Comp
L MX_Alps_Hybrid:MX-NoLED MX24
U 1 1 5EAC0F24
P 5050 4000
F 0 "MX24" H 5025 4175 39  0000 C CNN
F 1 "MX-1u" H 5025 4125 20  0000 C CNN
F 2 "SW_Cherry_MX:SW_Cherry_MX1A_1.00u_PCB" H 4425 3975 60  0001 C CNN
F 3 "" H 4425 3975 60  0001 C CNN
	1    5050 4000
	1    0    0    -1  
$EndComp
$Comp
L Device:D_Small D24
U 1 1 5EAC0F2B
P 5000 4250
F 0 "D24" V 4925 4225 50  0000 R CNN
F 1 "1N4148" H 5050 4325 20  0000 R CNN
F 2 "local:D_SOD-123" V 5000 4250 50  0001 C CNN
F 3 "~" V 5000 4250 50  0001 C CNN
	1    5000 4250
	0    -1   -1   0   
$EndComp
$Comp
L MX_Alps_Hybrid:MX-NoLED MX25
U 1 1 5EAC0F32
P 5375 4000
F 0 "MX25" H 5350 4175 39  0000 C CNN
F 1 "MX-1u" H 5350 4125 20  0000 C CNN
F 2 "SW_Cherry_MX:SW_Cherry_MX1A_1.00u_PCB" H 4750 3975 60  0001 C CNN
F 3 "" H 4750 3975 60  0001 C CNN
	1    5375 4000
	1    0    0    -1  
$EndComp
$Comp
L Device:D_Small D25
U 1 1 5EAC0F39
P 5325 4250
F 0 "D25" V 5250 4225 50  0000 R CNN
F 1 "1N4148" H 5375 4325 20  0000 R CNN
F 2 "local:D_SOD-123" V 5325 4250 50  0001 C CNN
F 3 "~" V 5325 4250 50  0001 C CNN
	1    5325 4250
	0    -1   -1   0   
$EndComp
$Comp
L MX_Alps_Hybrid:MX-NoLED MX26
U 1 1 5EAC0F40
P 5700 4000
F 0 "MX26" H 5675 4175 39  0000 C CNN
F 1 "MX-1u" H 5675 4125 20  0000 C CNN
F 2 "SW_Cherry_MX:SW_Cherry_MX1A_1.00u_PCB" H 5075 3975 60  0001 C CNN
F 3 "" H 5075 3975 60  0001 C CNN
	1    5700 4000
	1    0    0    -1  
$EndComp
$Comp
L Device:D_Small D26
U 1 1 5EAC0F47
P 5650 4250
F 0 "D26" V 5575 4225 50  0000 R CNN
F 1 "1N4148" H 5700 4325 20  0000 R CNN
F 2 "local:D_SOD-123" V 5650 4250 50  0001 C CNN
F 3 "~" V 5650 4250 50  0001 C CNN
	1    5650 4250
	0    -1   -1   0   
$EndComp
$Comp
L MX_Alps_Hybrid:MX-NoLED MX27
U 1 1 5EAC0F4E
P 6025 4000
F 0 "MX27" H 6000 4175 39  0000 C CNN
F 1 "MX-1u" H 6000 4125 20  0000 C CNN
F 2 "SW_Cherry_MX:SW_Cherry_MX1A_1.00u_PCB" H 5400 3975 60  0001 C CNN
F 3 "" H 5400 3975 60  0001 C CNN
	1    6025 4000
	1    0    0    -1  
$EndComp
$Comp
L Device:D_Small D27
U 1 1 5EAC0F55
P 5975 4250
F 0 "D27" V 5900 4225 50  0000 R CNN
F 1 "1N4148" H 6025 4325 20  0000 R CNN
F 2 "local:D_SOD-123" V 5975 4250 50  0001 C CNN
F 3 "~" V 5975 4250 50  0001 C CNN
	1    5975 4250
	0    -1   -1   0   
$EndComp
$Comp
L MX_Alps_Hybrid:MX-NoLED MX28
U 1 1 5EAC0F5C
P 6350 4000
F 0 "MX28" H 6325 4175 39  0000 C CNN
F 1 "MX-1u" H 6325 4125 20  0000 C CNN
F 2 "SW_Cherry_MX:SW_Cherry_MX1A_1.00u_PCB" H 5725 3975 60  0001 C CNN
F 3 "" H 5725 3975 60  0001 C CNN
	1    6350 4000
	1    0    0    -1  
$EndComp
$Comp
L Device:D_Small D28
U 1 1 5EAC0F63
P 6300 4250
F 0 "D28" V 6225 4225 50  0000 R CNN
F 1 "1N4148" H 6350 4325 20  0000 R CNN
F 2 "local:D_SOD-123" V 6300 4250 50  0001 C CNN
F 3 "~" V 6300 4250 50  0001 C CNN
	1    6300 4250
	0    -1   -1   0   
$EndComp
$Comp
L MX_Alps_Hybrid:MX-NoLED MX29
U 1 1 5EAC0F6A
P 6675 4000
F 0 "MX29" H 6650 4175 39  0000 C CNN
F 1 "MX-1u" H 6650 4125 20  0000 C CNN
F 2 "SW_Cherry_MX:SW_Cherry_MX1A_1.00u_PCB" H 6050 3975 60  0001 C CNN
F 3 "" H 6050 3975 60  0001 C CNN
	1    6675 4000
	1    0    0    -1  
$EndComp
$Comp
L Device:D_Small D29
U 1 1 5EAC0F71
P 6625 4250
F 0 "D29" V 6550 4225 50  0000 R CNN
F 1 "1N4148" H 6675 4325 20  0000 R CNN
F 2 "local:D_SOD-123" V 6625 4250 50  0001 C CNN
F 3 "~" V 6625 4250 50  0001 C CNN
	1    6625 4250
	0    -1   -1   0   
$EndComp
$Comp
L MX_Alps_Hybrid:MX-NoLED MX210
U 1 1 5EAC0F78
P 7000 4000
F 0 "MX210" H 6975 4175 39  0000 C CNN
F 1 "MX-1u" H 6975 4125 20  0000 C CNN
F 2 "SW_Cherry_MX:SW_Cherry_MX1A_1.00u_PCB" H 6375 3975 60  0001 C CNN
F 3 "" H 6375 3975 60  0001 C CNN
	1    7000 4000
	1    0    0    -1  
$EndComp
$Comp
L Device:D_Small D210
U 1 1 5EAC0F7F
P 6950 4250
F 0 "D210" V 6875 4225 50  0000 R CNN
F 1 "1N4148" H 7000 4325 20  0000 R CNN
F 2 "local:D_SOD-123" V 6950 4250 50  0001 C CNN
F 3 "~" V 6950 4250 50  0001 C CNN
	1    6950 4250
	0    -1   -1   0   
$EndComp
$Comp
L Device:D_Small D211
U 1 1 5EAC0F9B
P 7275 4250
F 0 "D211" V 7200 4225 50  0000 R CNN
F 1 "1N4148" H 7325 4325 20  0000 R CNN
F 2 "local:D_SOD-123" V 7275 4250 50  0001 C CNN
F 3 "~" V 7275 4250 50  0001 C CNN
	1    7275 4250
	0    -1   -1   0   
$EndComp
$Comp
L MX_Alps_Hybrid:MX-NoLED MX211
U 1 1 5EAC0F94
P 7325 4000
F 0 "MX211" H 7300 4175 39  0000 C CNN
F 1 "MX-1u" H 7300 4125 20  0000 C CNN
F 2 "SW_Cherry_MX:SW_Cherry_MX1A_1.00u_PCB" H 6700 3975 60  0001 C CNN
F 3 "" H 6700 3975 60  0001 C CNN
	1    7325 4000
	1    0    0    -1  
$EndComp
$Comp
L MX_Alps_Hybrid:MX-NoLED MX31
U 1 1 5EADDCA6
P 4075 4650
F 0 "MX31" H 4050 4825 39  0000 C CNN
F 1 "MX-1u" H 4050 4775 20  0000 C CNN
F 2 "SW_Cherry_MX:SW_Cherry_MX1A_1.00u_PCB" H 3450 4625 60  0001 C CNN
F 3 "" H 3450 4625 60  0001 C CNN
	1    4075 4650
	1    0    0    -1  
$EndComp
$Comp
L Device:D_Small D31
U 1 1 5EADDCAD
P 4025 4900
F 0 "D31" V 3950 4875 50  0000 R CNN
F 1 "1N4148" H 4075 4975 20  0000 R CNN
F 2 "local:D_SOD-123" V 4025 4900 50  0001 C CNN
F 3 "~" V 4025 4900 50  0001 C CNN
	1    4025 4900
	0    -1   -1   0   
$EndComp
$Comp
L MX_Alps_Hybrid:MX-NoLED MX32
U 1 1 5EADDCC2
P 4400 4650
F 0 "MX32" H 4375 4825 39  0000 C CNN
F 1 "MX-1.25u" H 4375 4775 20  0000 C CNN
F 2 "SW_Cherry_MX:SW_Cherry_MX1A_1.25u_PCB" H 3775 4625 60  0001 C CNN
F 3 "" H 3775 4625 60  0001 C CNN
	1    4400 4650
	1    0    0    -1  
$EndComp
$Comp
L Device:D_Small D32
U 1 1 5EADDCC9
P 4350 4900
F 0 "D32" V 4275 4875 50  0000 R CNN
F 1 "1N4148" H 4400 4975 20  0000 R CNN
F 2 "local:D_SOD-123" V 4350 4900 50  0001 C CNN
F 3 "~" V 4350 4900 50  0001 C CNN
	1    4350 4900
	0    -1   -1   0   
$EndComp
$Comp
L MX_Alps_Hybrid:MX-NoLED MX33
U 1 1 5EADDCD0
P 4725 4650
F 0 "MX33" H 4700 4825 39  0000 C CNN
F 1 "MX-1.25u" H 4700 4775 20  0000 C CNN
F 2 "SW_Cherry_MX:SW_Cherry_MX1A_1.25u_PCB" H 4100 4625 60  0001 C CNN
F 3 "" H 4100 4625 60  0001 C CNN
	1    4725 4650
	1    0    0    -1  
$EndComp
$Comp
L Device:D_Small D33
U 1 1 5EADDCD7
P 4675 4900
F 0 "D33" V 4600 4875 50  0000 R CNN
F 1 "1N4148" H 4725 4975 20  0000 R CNN
F 2 "local:D_SOD-123" V 4675 4900 50  0001 C CNN
F 3 "~" V 4675 4900 50  0001 C CNN
	1    4675 4900
	0    -1   -1   0   
$EndComp
$Comp
L MX_Alps_Hybrid:MX-NoLED MX35
U 1 1 5EADDCEC
P 5375 4650
F 0 "MX35" H 5350 4825 39  0000 C CNN
F 1 "MX-1.25u" H 5350 4775 20  0000 C CNN
F 2 "SW_Cherry_MX:SW_Cherry_MX1A_1.25u_PCB" H 4750 4625 60  0001 C CNN
F 3 "" H 4750 4625 60  0001 C CNN
	1    5375 4650
	1    0    0    -1  
$EndComp
$Comp
L Device:D_Small D35
U 1 1 5EADDCF3
P 5325 4900
F 0 "D35" V 5250 4875 50  0000 R CNN
F 1 "1N4148" H 5375 4975 20  0000 R CNN
F 2 "local:D_SOD-123" V 5325 4900 50  0001 C CNN
F 3 "~" V 5325 4900 50  0001 C CNN
	1    5325 4900
	0    -1   -1   0   
$EndComp
$Comp
L MX_Alps_Hybrid:MX-NoLED MX36
U 1 1 5EADDCFA
P 5700 4650
F 0 "MX36" H 5675 4825 39  0000 C CNN
F 1 "MX-1u" H 5675 4775 20  0000 C CNN
F 2 "SW_Cherry_MX:SW_Cherry_MX1A_1.00u_PCB" H 5075 4625 60  0001 C CNN
F 3 "" H 5075 4625 60  0001 C CNN
	1    5700 4650
	1    0    0    -1  
$EndComp
$Comp
L Device:D_Small D36
U 1 1 5EADDD01
P 5650 4900
F 0 "D36" V 5575 4875 50  0000 R CNN
F 1 "1N4148" H 5700 4975 20  0000 R CNN
F 2 "local:D_SOD-123" V 5650 4900 50  0001 C CNN
F 3 "~" V 5650 4900 50  0001 C CNN
	1    5650 4900
	0    -1   -1   0   
$EndComp
$Comp
L MX_Alps_Hybrid:MX-NoLED MX37
U 1 1 5EADDD08
P 6025 4650
F 0 "MX37" H 6000 4825 39  0000 C CNN
F 1 "MX-1.25u" H 6000 4775 20  0000 C CNN
F 2 "SW_Cherry_MX:SW_Cherry_MX1A_1.25u_PCB" H 5400 4625 60  0001 C CNN
F 3 "" H 5400 4625 60  0001 C CNN
	1    6025 4650
	1    0    0    -1  
$EndComp
$Comp
L Device:D_Small D37
U 1 1 5EADDD0F
P 5975 4900
F 0 "D37" V 5900 4875 50  0000 R CNN
F 1 "1N4148" H 6025 4975 20  0000 R CNN
F 2 "local:D_SOD-123" V 5975 4900 50  0001 C CNN
F 3 "~" V 5975 4900 50  0001 C CNN
	1    5975 4900
	0    -1   -1   0   
$EndComp
$Comp
L MX_Alps_Hybrid:MX-NoLED MX39
U 1 1 5EADDD24
P 6675 4650
F 0 "MX39" H 6650 4825 39  0000 C CNN
F 1 "MX-1.25u" H 6650 4775 20  0000 C CNN
F 2 "SW_Cherry_MX:SW_Cherry_MX1A_1.25u_PCB" H 6050 4625 60  0001 C CNN
F 3 "" H 6050 4625 60  0001 C CNN
	1    6675 4650
	1    0    0    -1  
$EndComp
$Comp
L Device:D_Small D39
U 1 1 5EADDD2B
P 6625 4900
F 0 "D39" V 6550 4875 50  0000 R CNN
F 1 "1N4148" H 6675 4975 20  0000 R CNN
F 2 "local:D_SOD-123" V 6625 4900 50  0001 C CNN
F 3 "~" V 6625 4900 50  0001 C CNN
	1    6625 4900
	0    -1   -1   0   
$EndComp
$Comp
L MX_Alps_Hybrid:MX-NoLED MX310
U 1 1 5EADDD32
P 7000 4650
F 0 "MX310" H 6975 4825 39  0000 C CNN
F 1 "MX-1u" H 6975 4775 20  0000 C CNN
F 2 "SW_Cherry_MX:SW_Cherry_MX1A_1.00u_PCB" H 6375 4625 60  0001 C CNN
F 3 "" H 6375 4625 60  0001 C CNN
	1    7000 4650
	1    0    0    -1  
$EndComp
$Comp
L Device:D_Small D310
U 1 1 5EADDD39
P 6950 4900
F 0 "D310" V 6875 4875 50  0000 R CNN
F 1 "1N4148" H 7000 4975 20  0000 R CNN
F 2 "local:D_SOD-123" V 6950 4900 50  0001 C CNN
F 3 "~" V 6950 4900 50  0001 C CNN
	1    6950 4900
	0    -1   -1   0   
$EndComp
$Comp
L Device:D_Small D38
U 1 1 5EADDD1D
P 6300 4900
F 0 "D38" V 6225 4875 50  0000 R CNN
F 1 "1N4148" H 6350 4975 20  0000 R CNN
F 2 "local:D_SOD-123" V 6300 4900 50  0001 C CNN
F 3 "~" V 6300 4900 50  0001 C CNN
	1    6300 4900
	0    -1   -1   0   
$EndComp
$Comp
L MX_Alps_Hybrid:MX-NoLED MX38
U 1 1 5EADDD16
P 6350 4650
F 0 "MX38" H 6325 4825 39  0000 C CNN
F 1 "MX-1.25u" H 6325 4775 20  0000 C CNN
F 2 "SW_Cherry_MX:SW_Cherry_MX1A_1.25u_PCB" H 5725 4625 60  0001 C CNN
F 3 "" H 5725 4625 60  0001 C CNN
	1    6350 4650
	1    0    0    -1  
$EndComp
Wire Wire Line
	3900 2300 3900 2650
Connection ~ 3900 2650
Wire Wire Line
	3900 2650 3900 3300
Connection ~ 3900 3300
Wire Wire Line
	3900 3300 3900 3950
Connection ~ 4350 5000
Wire Wire Line
	4350 5000 4025 5000
Connection ~ 4675 5000
Wire Wire Line
	4675 5000 4350 5000
Connection ~ 5325 5000
Wire Wire Line
	5325 5000 4675 5000
Connection ~ 5650 5000
Wire Wire Line
	5650 5000 5325 5000
Connection ~ 5975 5000
Wire Wire Line
	5975 5000 5650 5000
Connection ~ 6300 5000
Wire Wire Line
	6300 5000 5975 5000
Connection ~ 6625 5000
Wire Wire Line
	6625 5000 6300 5000
Wire Wire Line
	6950 5000 6625 5000
Text GLabel 3450 5000 0    50   Input ~ 0
ROW3
Text GLabel 3450 4350 0    50   Input ~ 0
ROW2
Connection ~ 3700 4350
Wire Wire Line
	3700 4350 3450 4350
Connection ~ 4025 4350
Wire Wire Line
	4025 4350 3700 4350
Connection ~ 4350 4350
Wire Wire Line
	4350 4350 4025 4350
Connection ~ 4675 4350
Wire Wire Line
	4675 4350 4350 4350
Connection ~ 5000 4350
Wire Wire Line
	5000 4350 4675 4350
Connection ~ 5325 4350
Wire Wire Line
	5325 4350 5000 4350
Connection ~ 5650 4350
Wire Wire Line
	5650 4350 5325 4350
Connection ~ 5975 4350
Wire Wire Line
	5975 4350 5650 4350
Connection ~ 6300 4350
Wire Wire Line
	6300 4350 5975 4350
Connection ~ 6625 4350
Wire Wire Line
	6625 4350 6300 4350
Wire Wire Line
	6950 4350 6625 4350
Text GLabel 3450 3700 0    50   Input ~ 0
ROW1
Text GLabel 3475 3050 0    50   Input ~ 0
ROW0
Wire Wire Line
	7600 3050 7275 3050
Connection ~ 3700 3050
Wire Wire Line
	3700 3050 3475 3050
Connection ~ 4025 3050
Wire Wire Line
	4025 3050 3700 3050
Connection ~ 4350 3050
Wire Wire Line
	4350 3050 4025 3050
Connection ~ 4675 3050
Wire Wire Line
	4675 3050 4350 3050
Connection ~ 5000 3050
Wire Wire Line
	5000 3050 4675 3050
Connection ~ 5325 3050
Wire Wire Line
	5325 3050 5000 3050
Connection ~ 5650 3050
Wire Wire Line
	5650 3050 5325 3050
Connection ~ 5975 3050
Wire Wire Line
	5975 3050 5650 3050
Connection ~ 6300 3050
Wire Wire Line
	6300 3050 5975 3050
Connection ~ 6625 3050
Wire Wire Line
	6625 3050 6300 3050
Connection ~ 6950 3050
Wire Wire Line
	6950 3050 6625 3050
Connection ~ 7275 3050
Wire Wire Line
	7275 3050 6950 3050
Wire Wire Line
	7600 3700 7275 3700
Connection ~ 3700 3700
Wire Wire Line
	3700 3700 3450 3700
Connection ~ 4025 3700
Wire Wire Line
	4025 3700 3700 3700
Connection ~ 4350 3700
Wire Wire Line
	4350 3700 4025 3700
Connection ~ 4675 3700
Wire Wire Line
	4675 3700 4350 3700
Connection ~ 5000 3700
Wire Wire Line
	5000 3700 4675 3700
Connection ~ 5325 3700
Wire Wire Line
	5325 3700 5000 3700
Connection ~ 5650 3700
Wire Wire Line
	5650 3700 5325 3700
Connection ~ 5975 3700
Wire Wire Line
	5975 3700 5650 3700
Connection ~ 6300 3700
Wire Wire Line
	6300 3700 5975 3700
Connection ~ 6625 3700
Wire Wire Line
	6625 3700 6300 3700
Connection ~ 6950 3700
Wire Wire Line
	6950 3700 6625 3700
Connection ~ 7275 3700
Wire Wire Line
	7275 3700 6950 3700
Text GLabel 4225 2300 0    50   Input ~ 0
COL1
Wire Wire Line
	4225 2300 4225 2650
Connection ~ 4225 2650
Wire Wire Line
	4225 2650 4225 3300
Connection ~ 4225 3300
Wire Wire Line
	4225 3300 4225 3950
Text GLabel 4550 2300 0    50   Input ~ 0
COL2
Wire Wire Line
	4550 2300 4550 2650
Connection ~ 4550 2650
Wire Wire Line
	4550 2650 4550 3300
Connection ~ 4550 3300
Wire Wire Line
	4550 3300 4550 3950
Connection ~ 4550 3950
Wire Wire Line
	4550 3950 4550 4600
Text GLabel 4875 2300 0    50   Input ~ 0
COL3
Wire Wire Line
	4875 2300 4875 2650
Connection ~ 4875 2650
Wire Wire Line
	4875 2650 4875 3300
Connection ~ 4875 3300
Wire Wire Line
	4875 3300 4875 3950
Connection ~ 4875 3950
Wire Wire Line
	4875 3950 4875 4600
Text GLabel 5200 2300 0    50   Input ~ 0
COL4
Wire Wire Line
	5200 2300 5200 2650
Connection ~ 5200 2650
Wire Wire Line
	5200 2650 5200 3300
Connection ~ 5200 3300
Wire Wire Line
	5200 3300 5200 3950
Text GLabel 5525 2300 0    50   Input ~ 0
COL5
Wire Wire Line
	5525 2300 5525 2650
Connection ~ 5525 2650
Wire Wire Line
	5525 2650 5525 3300
Connection ~ 5525 3300
Wire Wire Line
	5525 3300 5525 3950
Connection ~ 5525 3950
Wire Wire Line
	5525 3950 5525 4600
Text GLabel 5850 2300 0    50   Input ~ 0
COL6
Wire Wire Line
	5850 2300 5850 2650
Connection ~ 5850 2650
Wire Wire Line
	5850 2650 5850 3300
Connection ~ 5850 3300
Wire Wire Line
	5850 3300 5850 3950
Connection ~ 5850 3950
Wire Wire Line
	5850 3950 5850 4600
Text GLabel 6175 2300 0    50   Input ~ 0
COL7
Wire Wire Line
	6175 2300 6175 2650
Connection ~ 6175 2650
Wire Wire Line
	6175 2650 6175 3300
Connection ~ 6175 3300
Wire Wire Line
	6175 3300 6175 3950
Connection ~ 6175 3950
Wire Wire Line
	6175 3950 6175 4600
Text GLabel 6500 2300 0    50   Input ~ 0
COL8
Wire Wire Line
	6500 2300 6500 2650
Connection ~ 6500 2650
Wire Wire Line
	6500 2650 6500 3300
Connection ~ 6500 3300
Wire Wire Line
	6500 3300 6500 3950
Connection ~ 6500 3950
Wire Wire Line
	6500 3950 6500 4600
Text GLabel 6825 2300 0    50   Input ~ 0
COL9
Wire Wire Line
	6825 2300 6825 2650
Connection ~ 6825 2650
Wire Wire Line
	6825 2650 6825 3300
Connection ~ 6825 3300
Wire Wire Line
	6825 3300 6825 3950
Connection ~ 6825 3950
Wire Wire Line
	6825 3950 6825 4600
Text GLabel 7150 2300 0    50   Input ~ 0
COL10
Wire Wire Line
	7150 2300 7150 2650
Connection ~ 7150 2650
Wire Wire Line
	7150 2650 7150 3300
Connection ~ 7150 3300
Wire Wire Line
	7150 3300 7150 3950
Connection ~ 7150 3950
Wire Wire Line
	7150 3950 7150 4600
Text GLabel 7475 2300 0    50   Input ~ 0
COL11
Wire Wire Line
	7475 2300 7475 2650
Connection ~ 7475 2650
Wire Wire Line
	7475 2650 7475 3300
Text GLabel 7800 2300 0    50   Input ~ 0
COL12
Wire Wire Line
	7800 2300 7800 2650
Connection ~ 7800 2650
Wire Wire Line
	7800 2650 7800 3300
Connection ~ 7800 3300
Wire Wire Line
	7475 3300 7475 3950
Connection ~ 7475 3300
$Comp
L Device:D_Small D213
U 1 1 5EA42802
P 7600 4250
F 0 "D213" V 7525 4225 50  0000 R CNN
F 1 "1N4148" H 7650 4325 20  0000 R CNN
F 2 "local:D_SOD-123" V 7600 4250 50  0001 C CNN
F 3 "~" V 7600 4250 50  0001 C CNN
	1    7600 4250
	0    -1   -1   0   
$EndComp
$Comp
L MX_Alps_Hybrid:MX-NoLED MX213
U 1 1 5EA42809
P 7650 4000
F 0 "MX213" H 7625 4175 39  0000 C CNN
F 1 "MX-1u" H 7625 4125 20  0000 C CNN
F 2 "SW_Cherry_MX:SW_Cherry_MX1A_1.00u_PCB" H 7025 3975 60  0001 C CNN
F 3 "" H 7025 3975 60  0001 C CNN
	1    7650 4000
	1    0    0    -1  
$EndComp
Wire Wire Line
	7800 3300 7800 3950
Connection ~ 4025 5000
Wire Wire Line
	3450 5000 3700 5000
Wire Wire Line
	4225 3950 4225 4600
Connection ~ 4225 3950
Text Notes 3650 2725 0    50   ~ 0
TAB
$Comp
L MX_Alps_Hybrid:MX-NoLED MX30
U 1 1 5EA301BC
P 3750 4650
F 0 "MX30" H 3725 4825 39  0000 C CNN
F 1 "MX-1u" H 3725 4775 20  0000 C CNN
F 2 "SW_Cherry_MX:SW_Cherry_MX1A_1.00u_PCB" H 3125 4625 60  0001 C CNN
F 3 "" H 3125 4625 60  0001 C CNN
	1    3750 4650
	1    0    0    -1  
$EndComp
$Comp
L Device:D_Small D30
U 1 1 5EA301C3
P 3700 4900
F 0 "D30" V 3625 4875 50  0000 R CNN
F 1 "1N4148" H 3750 4975 20  0000 R CNN
F 2 "local:D_SOD-123" V 3700 4900 50  0001 C CNN
F 3 "~" V 3700 4900 50  0001 C CNN
	1    3700 4900
	0    -1   -1   0   
$EndComp
Connection ~ 3700 5000
Wire Wire Line
	3700 5000 4025 5000
Wire Wire Line
	3900 3950 3900 4600
Connection ~ 3900 3950
Text Notes 3975 4675 0    50   ~ 0
TILT
Text Notes 3650 4675 0    50   ~ 0
DEL
Text Notes 6925 4650 0    50   ~ 0
FN
Wire Wire Line
	6950 4350 7275 4350
Connection ~ 6950 4350
Wire Wire Line
	7600 4350 7275 4350
Connection ~ 7275 4350
$EndSCHEMATC
