EESchema Schematic File Version 4
LIBS:Pinky-cache
EELAYER 26 0
EELAYER END
$Descr A4 11693 8268
encoding utf-8
Sheet 1 2
Title "Pinky"
Date "2020-04-21"
Rev "1.0"
Comp "./qusw"
Comment1 "Inspired by Tanuki"
Comment2 "50% diy mechanical keyboard"
Comment3 ""
Comment4 ""
$EndDescr
$Comp
L Device:Crystal_GND24_Small Y1
U 1 1 59E55B9D
P 2650 1875
F 0 "Y1" V 2540 1765 50  0000 L CNN
F 1 "16MHz 16pF" V 2550 1925 39  0000 L CNN
F 2 "Crystal:Crystal_SMD_3225-4Pin_3.2x2.5mm_HandSoldering" H 2650 1875 50  0001 C CNN
F 3 "" H 2650 1875 50  0001 C CNN
	1    2650 1875
	0    1    1    0   
$EndComp
$Comp
L Device:C_Small C1
U 1 1 59E55C20
P 2325 1725
F 0 "C1" V 2275 1755 50  0000 L CNN
F 1 "22p" V 2360 1760 39  0000 L CNN
F 2 "Capacitor_SMD:C_0805_2012Metric_Pad1.15x1.40mm_HandSolder" H 2325 1725 50  0001 C CNN
F 3 "" H 2325 1725 50  0001 C CNN
	1    2325 1725
	0    1    1    0   
$EndComp
$Comp
L Device:C_Small C2
U 1 1 59E55D4D
P 2325 2025
F 0 "C2" V 2220 1980 50  0000 L CNN
F 1 "22p" V 2360 2060 39  0000 L CNN
F 2 "Capacitor_SMD:C_0805_2012Metric_Pad1.15x1.40mm_HandSolder" H 2325 2025 50  0001 C CNN
F 3 "" H 2325 2025 50  0001 C CNN
	1    2325 2025
	0    1    1    0   
$EndComp
$Comp
L power:GND #PWR01
U 1 1 59E55E19
P 2525 2500
F 0 "#PWR01" H 2525 2250 50  0001 C CNN
F 1 "GND" H 2525 2350 50  0000 C CNN
F 2 "" H 2525 2500 50  0001 C CNN
F 3 "" H 2525 2500 50  0001 C CNN
	1    2525 2500
	1    0    0    -1  
$EndComp
$Comp
L Device:R_Small R7
U 1 1 59E56F4D
P 2875 1525
F 0 "R7" V 2940 1480 50  0000 L CNN
F 1 "10k" V 2870 1470 39  0000 L CNN
F 2 "Resistor_SMD:R_0805_2012Metric_Pad1.15x1.40mm_HandSolder" H 2875 1525 50  0001 C CNN
F 3 "" H 2875 1525 50  0001 C CNN
	1    2875 1525
	0    -1   -1   0   
$EndComp
$Comp
L power:+5V #PWR03
U 1 1 59E5754C
P 2475 1525
F 0 "#PWR03" H 2475 1375 50  0001 C CNN
F 1 "+5V" V 2550 1600 50  0000 C CNN
F 2 "" H 2475 1525 50  0001 C CNN
F 3 "" H 2475 1525 50  0001 C CNN
	1    2475 1525
	0    -1   -1   0   
$EndComp
$Comp
L Device:C_Small C3
U 1 1 59E57FE4
P 3075 2425
F 0 "C3" V 3025 2275 50  0000 L CNN
F 1 "1uF" V 3025 2475 39  0000 L CNN
F 2 "Capacitor_SMD:C_0805_2012Metric_Pad1.15x1.40mm_HandSolder" H 3075 2425 50  0001 C CNN
F 3 "" H 3075 2425 50  0001 C CNN
	1    3075 2425
	0    1    1    0   
$EndComp
$Comp
L Device:R_Small R3
U 1 1 59E5900C
P 9920 2500
F 0 "R3" V 9845 2450 50  0000 L CNN
F 1 "22R" V 9920 2445 39  0000 L CNN
F 2 "Resistor_SMD:R_0805_2012Metric_Pad1.15x1.40mm_HandSolder" H 9920 2500 50  0001 C CNN
F 3 "" H 9920 2500 50  0001 C CNN
	1    9920 2500
	0    1    1    0   
$EndComp
$Comp
L Device:R_Small R4
U 1 1 59E59519
P 9920 2700
F 0 "R4" V 9845 2650 50  0000 L CNN
F 1 "22R" V 9915 2635 39  0000 L CNN
F 2 "Resistor_SMD:R_0805_2012Metric_Pad1.15x1.40mm_HandSolder" H 9920 2700 50  0001 C CNN
F 3 "" H 9920 2700 50  0001 C CNN
	1    9920 2700
	0    -1   -1   0   
$EndComp
$Comp
L Device:Polyfuse_Small F1
U 1 1 59E5C05A
P 8625 2000
F 0 "F1" V 8540 2000 50  0000 C CNN
F 1 "500mA" V 8700 1990 39  0000 C CNN
F 2 "Fuse:Fuse_0805_2012Metric_Pad1.15x1.40mm_HandSolder" H 8675 1800 50  0001 L CNN
F 3 "" H 8625 2000 50  0001 C CNN
	1    8625 2000
	0    1    1    0   
$EndComp
$Comp
L power:GND #PWR010
U 1 1 59E5EC47
P 3975 4125
F 0 "#PWR010" H 3975 3875 50  0001 C CNN
F 1 "GND" H 3975 3975 50  0000 C CNN
F 2 "" H 3975 4125 50  0001 C CNN
F 3 "" H 3975 4125 50  0001 C CNN
	1    3975 4125
	1    0    0    -1  
$EndComp
$Comp
L power:+5V #PWR011
U 1 1 59E5EF79
P 3975 1125
F 0 "#PWR011" H 3975 975 50  0001 C CNN
F 1 "+5V" H 3975 1265 50  0000 C CNN
F 2 "" H 3975 1125 50  0001 C CNN
F 3 "" H 3975 1125 50  0001 C CNN
	1    3975 1125
	1    0    0    -1  
$EndComp
Wire Wire Line
	2425 1725 2650 1725
Wire Wire Line
	2650 1725 2650 1775
Wire Wire Line
	2650 1975 2650 2025
Wire Wire Line
	2425 2025 2650 2025
Connection ~ 2650 2025
Connection ~ 2650 1725
Wire Wire Line
	2775 2175 2775 1875
Wire Wire Line
	3275 1525 3150 1525
Wire Wire Line
	2475 1525 2775 1525
Wire Wire Line
	3975 4125 3975 4025
Wire Wire Line
	3975 1125 3975 1225
$Sheet
S 2300 5075 2250 1900
U 59E84325
F0 "Matrix" 60
F1 "Matrix.sch" 60
$EndSheet
$Comp
L Device:C_Small C4
U 1 1 59E71603
P 2565 3335
F 0 "C4" H 2575 3400 50  0000 L CNN
F 1 "0.1u" H 2575 3275 39  0000 L CNN
F 2 "Capacitor_SMD:C_0805_2012Metric_Pad1.15x1.40mm_HandSolder" H 2565 3335 50  0001 C CNN
F 3 "" H 2565 3335 50  0001 C CNN
	1    2565 3335
	-1   0    0    -1  
$EndComp
$Comp
L Device:C_Small C5
U 1 1 59E7418D
P 2765 3335
F 0 "C5" H 2780 3395 50  0000 L CNN
F 1 "0.1u" H 2770 3275 39  0000 L CNN
F 2 "Capacitor_SMD:C_0805_2012Metric_Pad1.15x1.40mm_HandSolder" H 2765 3335 50  0001 C CNN
F 3 "" H 2765 3335 50  0001 C CNN
	1    2765 3335
	-1   0    0    -1  
$EndComp
$Comp
L Device:C_Small C6
U 1 1 59E7422A
P 2965 3335
F 0 "C6" H 2970 3395 50  0000 L CNN
F 1 "4.7u" H 2970 3270 39  0000 L CNN
F 2 "Capacitor_SMD:C_0805_2012Metric_Pad1.15x1.40mm_HandSolder" H 2965 3335 50  0001 C CNN
F 3 "" H 2965 3335 50  0001 C CNN
	1    2965 3335
	-1   0    0    -1  
$EndComp
Wire Wire Line
	2565 3235 2765 3235
Connection ~ 2765 3235
Wire Wire Line
	2565 3435 2765 3435
Connection ~ 2765 3435
$Comp
L power:+5V #PWR022
U 1 1 59E74DA6
P 2765 3135
F 0 "#PWR022" H 2765 2985 50  0001 C CNN
F 1 "+5V" H 2765 3275 50  0000 C CNN
F 2 "" H 2765 3135 50  0001 C CNN
F 3 "" H 2765 3135 50  0001 C CNN
	1    2765 3135
	1    0    0    -1  
$EndComp
Wire Wire Line
	2765 3135 2765 3235
$Comp
L power:GND #PWR023
U 1 1 59E74EEB
P 2765 3535
F 0 "#PWR023" H 2765 3285 50  0001 C CNN
F 1 "GND" H 2765 3385 50  0000 C CNN
F 2 "" H 2765 3535 50  0001 C CNN
F 3 "" H 2765 3535 50  0001 C CNN
	1    2765 3535
	1    0    0    -1  
$EndComp
Wire Wire Line
	2765 3535 2765 3435
Connection ~ 3150 1525
Wire Wire Line
	2650 2025 2950 2025
Wire Wire Line
	2525 2175 2775 2175
Wire Wire Line
	2765 3235 2965 3235
Wire Wire Line
	2765 3435 2965 3435
Wire Wire Line
	3150 1525 2975 1525
NoConn ~ 7950 3100
$Comp
L Device:R_Small R6
U 1 1 5C0FE230
P 8375 3200
F 0 "R6" V 8300 3150 50  0000 L CNN
F 1 "5.1k" V 8375 3140 39  0000 L CNN
F 2 "Resistor_SMD:R_0805_2012Metric_Pad1.15x1.40mm_HandSolder" H 8375 3200 50  0001 C CNN
F 3 "" H 8375 3200 50  0001 C CNN
	1    8375 3200
	1    0    0    -1  
$EndComp
Wire Wire Line
	7950 2300 8225 2300
Wire Wire Line
	8225 2300 8225 3275
Wire Wire Line
	7950 2200 8375 2200
Wire Wire Line
	8375 2200 8375 3100
Text GLabel 10020 2500 2    50   Input ~ 0
D-
Text GLabel 10020 2700 2    50   Input ~ 0
D+
$Comp
L power:GND #PWR0101
U 1 1 5C16DD83
P 9335 3430
F 0 "#PWR0101" H 9335 3180 50  0001 C CNN
F 1 "GND" H 9340 3257 50  0000 C CNN
F 2 "" H 9335 3430 50  0001 C CNN
F 3 "" H 9335 3430 50  0001 C CNN
	1    9335 3430
	1    0    0    -1  
$EndComp
Wire Wire Line
	7950 2000 8025 2000
$Comp
L power:VCC #PWR0103
U 1 1 5C190C9D
P 8025 1925
F 0 "#PWR0103" H 8025 1775 50  0001 C CNN
F 1 "VCC" H 8042 2098 50  0000 C CNN
F 2 "" H 8025 1925 50  0001 C CNN
F 3 "" H 8025 1925 50  0001 C CNN
	1    8025 1925
	1    0    0    -1  
$EndComp
Wire Wire Line
	8025 1925 8025 2000
Connection ~ 8025 2000
Wire Wire Line
	8025 2000 8375 2000
Text GLabel 3175 2225 0    50   Input ~ 0
D-
Text GLabel 3175 2125 0    50   Input ~ 0
D+
$Comp
L power:GND #PWR0104
U 1 1 5C2D8977
P 9150 4000
F 0 "#PWR0104" H 9150 3750 50  0001 C CNN
F 1 "GND" H 9155 3827 50  0000 C CNN
F 2 "" H 9150 4000 50  0001 C CNN
F 3 "" H 9150 4000 50  0001 C CNN
	1    9150 4000
	1    0    0    -1  
$EndComp
$Comp
L power:GND #PWR0105
U 1 1 5C2F23CC
P 7350 3500
F 0 "#PWR0105" H 7350 3250 50  0001 C CNN
F 1 "GND" H 7355 3327 50  0000 C CNN
F 2 "" H 7350 3500 50  0001 C CNN
F 3 "" H 7350 3500 50  0001 C CNN
	1    7350 3500
	1    0    0    -1  
$EndComp
Text GLabel 4675 2425 2    50   Input ~ 0
COL0
Text GLabel 4675 3025 2    50   Input ~ 0
COL1
Text GLabel 4675 3125 2    50   Input ~ 0
COL2
Text GLabel 4675 3225 2    50   Input ~ 0
COL3
Text GLabel 4675 3325 2    50   Input ~ 0
COL4
Text GLabel 4675 3425 2    50   Input ~ 0
COL5
Text GLabel 4675 1825 2    50   Input ~ 0
COL6
Text GLabel 4675 1925 2    50   Input ~ 0
COL7
Text GLabel 4675 2025 2    50   Input ~ 0
COL8
Text GLabel 4675 2125 2    50   Input ~ 0
COL9
Text GLabel 4675 2825 2    50   Input ~ 0
COL11
Text GLabel 4675 2725 2    50   Input ~ 0
COL12
Text GLabel 4675 1725 2    50   Input ~ 0
ROW3
Text GLabel 4675 1625 2    50   Input ~ 0
ROW2
Text GLabel 4675 2625 2    50   Input ~ 0
ROW1
Text GLabel 4675 2525 2    50   Input ~ 0
ROW0
Text GLabel 4675 2225 2    50   Input ~ 0
COL10
Connection ~ 2525 2175
Wire Wire Line
	2525 1875 2525 2175
Connection ~ 2225 2025
Wire Wire Line
	2225 1725 2225 2025
Text Notes 9975 4500 0    118  ~ 0
USB
Wire Notes Line
	1375 775  1375 4600
Wire Notes Line
	1375 4600 6250 4600
Wire Notes Line
	6250 4600 6250 750 
Wire Notes Line
	6250 750  1375 750 
Text Notes 5750 4500 0    118  ~ 0
CTRL
Wire Notes Line
	6350 750  6350 4600
$Comp
L Connector:USB_C_Receptacle_USB2.0 J0
U 1 1 5EC78A1F
P 7350 2600
F 0 "J0" H 7355 3445 50  0000 C CNN
F 1 "USB_C_Receptacle" H 7380 3360 50  0000 C CNN
F 2 "USB_C_USB4085:USB_C_GCT_USB4085" H 7500 2600 50  0001 C CNN
F 3 "https://www.usb.org/sites/default/files/documents/usb_type-c.zip" H 7500 2600 50  0001 C CNN
	1    7350 2600
	1    0    0    -1  
$EndComp
Wire Wire Line
	7950 2800 7950 2700
Wire Wire Line
	7950 2600 7950 2500
NoConn ~ 7950 3200
Wire Wire Line
	7050 3500 7350 3500
Connection ~ 7350 3500
$Comp
L Power_Protection:PRTR5V0U2X D3
U 1 1 5E9FB69F
P 9150 3450
F 0 "D3" H 9325 3660 50  0000 L CNN
F 1 "PRTR5V0U2X" V 8790 3575 50  0000 L CNN
F 2 "Package_TO_SOT_SMD:SOT-143" H 9210 3450 50  0001 C CNN
F 3 "https://assets.nexperia.com/documents/data-sheet/PRTR5V0U2X.pdf" H 9210 3450 50  0001 C CNN
	1    9150 3450
	1    0    0    -1  
$EndComp
$Comp
L power:VCC #PWR0102
U 1 1 5E9FD774
P 9150 2950
F 0 "#PWR0102" H 9150 2800 50  0001 C CNN
F 1 "VCC" H 9150 3090 50  0000 C CNN
F 2 "" H 9150 2950 50  0001 C CNN
F 3 "" H 9150 2950 50  0001 C CNN
	1    9150 2950
	1    0    0    -1  
$EndComp
Wire Wire Line
	7950 2500 9650 2500
Wire Wire Line
	7950 2700 8650 2700
Connection ~ 7950 2500
Connection ~ 7950 2700
$Comp
L Device:R_Small R5
U 1 1 5C0FDF68
P 8225 3375
F 0 "R5" V 8150 3325 50  0000 L CNN
F 1 "5.1k" V 8225 3310 39  0000 L CNN
F 2 "Resistor_SMD:R_0805_2012Metric_Pad1.15x1.40mm_HandSolder" H 8225 3375 50  0001 C CNN
F 3 "" H 8225 3375 50  0001 C CNN
	1    8225 3375
	1    0    0    -1  
$EndComp
Wire Wire Line
	9650 3450 9650 2500
Connection ~ 9650 2500
Wire Wire Line
	9650 2500 9820 2500
Wire Wire Line
	8650 3450 8650 2700
Connection ~ 8650 2700
Wire Wire Line
	8650 2700 9820 2700
Wire Notes Line
	6350 750  10425 750 
Wire Notes Line
	10425 750  10425 4600
Wire Notes Line
	10425 4600 6350 4600
$Comp
L Device:R_Small R8
U 1 1 5E9FD2EB
P 5050 3725
F 0 "R8" V 4975 3675 50  0000 L CNN
F 1 "10k" V 5050 3675 39  0000 L CNN
F 2 "Resistor_SMD:R_0805_2012Metric_Pad1.15x1.40mm_HandSolder" H 5050 3725 50  0001 C CNN
F 3 "" H 5050 3725 50  0001 C CNN
	1    5050 3725
	0    1    1    0   
$EndComp
$Comp
L power:GND #PWR0106
U 1 1 5E9FD2F2
P 5250 3725
F 0 "#PWR0106" H 5250 3475 50  0001 C CNN
F 1 "GND" V 5250 3525 50  0000 C CNN
F 2 "" H 5250 3725 50  0001 C CNN
F 3 "" H 5250 3725 50  0001 C CNN
	1    5250 3725
	0    -1   -1   0   
$EndComp
Wire Wire Line
	4675 3725 4950 3725
Wire Wire Line
	5250 3725 5150 3725
Wire Wire Line
	2525 2175 2225 2175
Wire Wire Line
	2225 2025 2225 2175
Wire Wire Line
	2650 1725 3275 1725
Wire Wire Line
	3275 1925 2950 1925
Wire Wire Line
	2950 1925 2950 2025
Wire Wire Line
	3275 2125 3175 2125
Wire Wire Line
	3275 2225 3175 2225
Wire Wire Line
	3275 2425 3175 2425
Wire Wire Line
	2525 2425 2525 2500
Wire Wire Line
	2525 2425 2975 2425
Wire Wire Line
	2525 2175 2525 2425
Connection ~ 2525 2425
Wire Wire Line
	3875 4025 3975 4025
Wire Wire Line
	3875 1225 3975 1225
Connection ~ 3975 1225
Wire Wire Line
	3975 1225 4075 1225
Wire Wire Line
	3150 1325 3150 1525
$Comp
L Device:LED LED0
U 1 1 5E9FAF34
P 9600 2000
F 0 "LED0" H 9590 1900 50  0000 C CNN
F 1 "PWR" H 9590 2100 39  0000 C CNN
F 2 "LED_SMD:LED_0805_2012Metric_Pad1.15x1.40mm_HandSolder" H 9600 2000 50  0001 C CNN
F 3 "~" H 9600 2000 50  0001 C CNN
	1    9600 2000
	-1   0    0    1   
$EndComp
$Comp
L Device:R_Small R0
U 1 1 5E9FBFD5
P 9950 2000
F 0 "R0" V 9875 1950 50  0000 L CNN
F 1 "1K" V 9950 1950 39  0000 L CNN
F 2 "Resistor_SMD:R_0805_2012Metric_Pad1.15x1.40mm_HandSolder" H 9950 2000 50  0001 C CNN
F 3 "" H 9950 2000 50  0001 C CNN
	1    9950 2000
	0    1    1    0   
$EndComp
Wire Wire Line
	9850 2000 9750 2000
Wire Wire Line
	8725 2000 8925 2000
$Comp
L Device:LED LED1
U 1 1 5EA0A6FE
P 9600 1700
F 0 "LED1" H 9590 1600 50  0000 C CNN
F 1 "STS" H 9475 1750 39  0000 C CNN
F 2 "LED_SMD:LED_0805_2012Metric_Pad1.15x1.40mm_HandSolder" H 9600 1700 50  0001 C CNN
F 3 "~" H 9600 1700 50  0001 C CNN
	1    9600 1700
	-1   0    0    1   
$EndComp
$Comp
L Device:R_Small R1
U 1 1 5EA0A705
P 9950 1700
F 0 "R1" V 9875 1650 50  0000 L CNN
F 1 "1K" V 9950 1650 39  0000 L CNN
F 2 "Resistor_SMD:R_0805_2012Metric_Pad1.15x1.40mm_HandSolder" H 9950 1700 50  0001 C CNN
F 3 "" H 9950 1700 50  0001 C CNN
	1    9950 1700
	0    1    1    0   
$EndComp
Wire Wire Line
	9850 1700 9750 1700
Text GLabel 4675 1525 2    50   Input ~ 0
STATUS
Text GLabel 9450 1700 0    50   Input ~ 0
STATUS
Text GLabel 4675 3525 2    50   Input ~ 0
MODE1
Text GLabel 9250 1200 0    50   Input ~ 0
MODE1
$Comp
L Device:R_Small R21
U 1 1 5EA16D58
P 9950 1200
F 0 "R21" V 9875 1150 50  0000 L CNN
F 1 "1K" V 9950 1150 39  0000 L CNN
F 2 "Resistor_SMD:R_0805_2012Metric_Pad1.15x1.40mm_HandSolder" H 9950 1200 50  0001 C CNN
F 3 "" H 9950 1200 50  0001 C CNN
	1    9950 1200
	0    1    1    0   
$EndComp
Wire Wire Line
	10050 2000 10125 2000
$Comp
L power:GND #PWR0107
U 1 1 5EA1F3C8
P 10150 2000
F 0 "#PWR0107" H 10150 1750 50  0001 C CNN
F 1 "GND" H 10155 1827 50  0000 C CNN
F 2 "" H 10150 2000 50  0001 C CNN
F 3 "" H 10150 2000 50  0001 C CNN
	1    10150 2000
	0    -1   -1   0   
$EndComp
Wire Wire Line
	10125 1400 10125 1700
Connection ~ 10125 2000
Wire Wire Line
	10125 2000 10150 2000
Wire Wire Line
	10050 1400 10125 1400
Wire Wire Line
	10050 1700 10125 1700
Connection ~ 10125 1700
Wire Wire Line
	10125 1700 10125 2000
$Comp
L power:PWR_FLAG #FLG0101
U 1 1 5EA3C59F
P 8375 1925
F 0 "#FLG0101" H 8375 2000 50  0001 C CNN
F 1 "PWR_FLAG" H 8375 2098 50  0000 C CNN
F 2 "" H 8375 1925 50  0001 C CNN
F 3 "~" H 8375 1925 50  0001 C CNN
	1    8375 1925
	1    0    0    -1  
$EndComp
Wire Wire Line
	8375 1925 8375 2000
Connection ~ 8375 2000
Wire Wire Line
	8375 2000 8525 2000
$Comp
L power:PWR_FLAG #FLG0102
U 1 1 5EA43DA2
P 8375 4000
F 0 "#FLG0102" H 8375 4075 50  0001 C CNN
F 1 "PWR_FLAG" H 8375 4173 50  0000 C CNN
F 2 "" H 8375 4000 50  0001 C CNN
F 3 "~" H 8375 4000 50  0001 C CNN
	1    8375 4000
	-1   0    0    1   
$EndComp
Wire Wire Line
	8225 4000 8375 4000
Wire Wire Line
	8375 3300 8375 4000
Connection ~ 8375 4000
Wire Wire Line
	8375 4000 9150 4000
Wire Wire Line
	9150 3950 9150 4000
Connection ~ 9150 4000
Wire Wire Line
	8225 3475 8225 4000
$Comp
L power:+5V #PWR0108
U 1 1 5EA5F2FE
P 8925 1925
F 0 "#PWR0108" H 8925 1775 50  0001 C CNN
F 1 "+5V" H 8925 2065 50  0000 C CNN
F 2 "" H 8925 1925 50  0001 C CNN
F 3 "" H 8925 1925 50  0001 C CNN
	1    8925 1925
	1    0    0    -1  
$EndComp
Wire Wire Line
	8925 1925 8925 2000
Connection ~ 8925 2000
Wire Wire Line
	8925 2000 9450 2000
$Comp
L power:PWR_FLAG #FLG0103
U 1 1 5EA62899
P 8925 2000
F 0 "#FLG0103" H 8925 2075 50  0001 C CNN
F 1 "PWR_FLAG" H 8925 2173 50  0000 C CNN
F 2 "" H 8925 2000 50  0001 C CNN
F 3 "~" H 8925 2000 50  0001 C CNN
	1    8925 2000
	-1   0    0    1   
$EndComp
Text Notes 1600 2550 0    39   ~ 0
Crystal's Load Capacitance\nCL = C1.C2/(C1+C2) + Cs \nC1 = C2 = 22pF\nCs = 5pF (stray)\nCL = C1/2 + Cs = 16pF\n
$Comp
L Connector:Conn_01x06_Male J1
U 1 1 5EA1141C
P 5500 1625
F 0 "J1" H 5625 2025 50  0000 C CNN
F 1 "ISP" H 5625 1950 50  0000 C CNN
F 2 "Connector_PinHeader_2.54mm:PinHeader_2x03_P2.54mm_Horizontal" H 5500 1625 50  0001 C CNN
F 3 "~" H 5500 1625 50  0001 C CNN
	1    5500 1625
	1    0    0    -1  
$EndComp
Text Label 4950 1625 0    50   ~ 0
SCLK
Wire Wire Line
	4675 1625 4950 1625
Text Label 4950 1725 0    50   ~ 0
MOSI
Wire Wire Line
	4675 1725 4950 1725
Text Label 4950 1825 0    50   ~ 0
MISO
Wire Wire Line
	4675 1825 4950 1825
Text Label 8675 4000 0    50   ~ 0
GND
Text Label 5700 1925 0    50   ~ 0
GND
Text Label 5700 1825 0    50   ~ 0
RESET
Text Label 5700 1725 0    50   ~ 0
MOSI
Text Label 5700 1625 0    50   ~ 0
SCLK
Text Label 5700 1425 0    50   ~ 0
MISO
Text Label 5700 1525 0    50   ~ 0
VCC
Text Label 8125 2000 0    50   ~ 0
VCC
Text Label 2900 1325 0    50   ~ 0
RESET
$Comp
L Mechanical:MountingHole MH1
U 1 1 5EA5DFBE
P 8750 6775
F 0 "MH1" H 8850 6820 50  0000 L CNN
F 1 "MH" H 8850 6730 50  0000 L CNN
F 2 "MountingHole:MountingHole_2.7mm_M2.5_DIN965" H 8750 6775 50  0001 C CNN
F 3 "~" H 8750 6775 50  0001 C CNN
	1    8750 6775
	1    0    0    -1  
$EndComp
$Comp
L Mechanical:MountingHole MH2
U 1 1 5EA5E3CE
P 9100 6775
F 0 "MH2" H 9200 6820 50  0000 L CNN
F 1 "MH" H 9200 6730 50  0000 L CNN
F 2 "MountingHole:MountingHole_2.7mm_M2.5_DIN965" H 9100 6775 50  0001 C CNN
F 3 "~" H 9100 6775 50  0001 C CNN
	1    9100 6775
	1    0    0    -1  
$EndComp
$Comp
L Mechanical:MountingHole MH3
U 1 1 5EA5E4F6
P 9475 6775
F 0 "MH3" H 9575 6820 50  0000 L CNN
F 1 "MH" H 9575 6730 50  0000 L CNN
F 2 "MountingHole:MountingHole_2.7mm_M2.5_DIN965" H 9475 6775 50  0001 C CNN
F 3 "~" H 9475 6775 50  0001 C CNN
	1    9475 6775
	1    0    0    -1  
$EndComp
$Comp
L Mechanical:MountingHole MH4
U 1 1 5EA5E4FD
P 9875 6775
F 0 "MH4" H 9975 6820 50  0000 L CNN
F 1 "MH" H 9975 6730 50  0000 L CNN
F 2 "MountingHole:MountingHole_2.7mm_M2.5_DIN965" H 9875 6775 50  0001 C CNN
F 3 "~" H 9875 6775 50  0001 C CNN
	1    9875 6775
	1    0    0    -1  
$EndComp
$Comp
L Mechanical:MountingHole MH5
U 1 1 5EA606F0
P 8950 7025
F 0 "MH5" H 9050 7070 50  0000 L CNN
F 1 "MH" H 9050 6980 50  0000 L CNN
F 2 "MountingHole:MountingHole_2.7mm_M2.5_DIN965" H 8950 7025 50  0001 C CNN
F 3 "~" H 8950 7025 50  0001 C CNN
	1    8950 7025
	1    0    0    -1  
$EndComp
$Comp
L Mechanical:MountingHole MH6
U 1 1 5EA606F7
P 9350 7025
F 0 "MH6" H 9450 7070 50  0000 L CNN
F 1 "MH" H 9450 6980 50  0000 L CNN
F 2 "MountingHole:MountingHole_2.7mm_M2.5_DIN965" H 9350 7025 50  0001 C CNN
F 3 "~" H 9350 7025 50  0001 C CNN
	1    9350 7025
	1    0    0    -1  
$EndComp
$Comp
L Mechanical:MountingHole MH7
U 1 1 5EA61247
P 9725 7025
F 0 "MH7" H 9825 7070 50  0000 L CNN
F 1 "MH" H 9825 6980 50  0000 L CNN
F 2 "MountingHole:MountingHole_2.7mm_M2.5_DIN965" H 9725 7025 50  0001 C CNN
F 3 "~" H 9725 7025 50  0001 C CNN
	1    9725 7025
	1    0    0    -1  
$EndComp
Wire Wire Line
	2900 1325 3150 1325
Text GLabel 9250 1400 0    50   Input ~ 0
MODE2
$Comp
L Device:LED_Dual_AACC LED2
U 1 1 5EA6F3C0
P 9550 1300
F 0 "LED2" H 9550 1700 50  0000 C CNN
F 1 "Dual_AACC" H 9550 1625 50  0000 C CNN
F 2 "local:LED_Dual-PLCC4_3.2x2.8mm" H 9580 1300 50  0001 C CNN
F 3 "~" H 9580 1300 50  0001 C CNN
	1    9550 1300
	1    0    0    -1  
$EndComp
$Comp
L Device:R_Small R22
U 1 1 5EA6F8A2
P 9950 1400
F 0 "R22" V 9875 1350 50  0000 L CNN
F 1 "1K" V 9950 1350 39  0000 L CNN
F 2 "Resistor_SMD:R_0805_2012Metric_Pad1.15x1.40mm_HandSolder" H 9950 1400 50  0001 C CNN
F 3 "" H 9950 1400 50  0001 C CNN
	1    9950 1400
	0    1    1    0   
$EndComp
Wire Wire Line
	10050 1200 10125 1200
Wire Wire Line
	10125 1200 10125 1400
Connection ~ 10125 1400
Connection ~ 3975 4025
$Comp
L MCU_Microchip_ATmega:ATmega32U2-AU U0
U 1 1 5E9FABB4
P 3975 2625
F 0 "U0" H 3950 2650 50  0000 C CNN
F 1 "ATmega32U2-AU" H 3950 2525 50  0000 C CNN
F 2 "Package_QFP:TQFP-32_7x7mm_P0.8mm" H 3975 2625 50  0001 C CIN
F 3 "http://ww1.microchip.com/downloads/en/DeviceDoc/doc7799.pdf" H 3975 2625 50  0001 C CNN
	1    3975 2625
	1    0    0    -1  
$EndComp
Text GLabel 4675 3625 2    50   Input ~ 0
MODE2
$EndSCHEMATC
