(module LED_Dual-PLCC4_3.2x2.8mm (layer F.Cu) (tedit 5EA22D8A)
  (descr "3.2mm x 2.8mm PLCC4 LED, http://www.cree.com/led-components/media/documents/CLV1AFKB(874).pdf")
  (tags "LED Cree PLCC-4")
  (attr smd)
  (fp_text reference LED2 (at -0.1 2.4) (layer F.SilkS)
    (effects (font (size 1 1) (thickness 0.15)))
  )
  (fp_text value Dual_AACC (at 0 -2.4) (layer F.Fab)
    (effects (font (size 1 1) (thickness 0.15)))
  )
  (fp_text user %R (at 0 0) (layer F.Fab)
    (effects (font (size 0.5 0.5) (thickness 0.075)))
  )
  (fp_line (start -1.95 1.5) (end 1.95 1.5) (layer F.SilkS) (width 0.12))
  (fp_line (start -0.6 -1.5) (end 1.95 -1.5) (layer F.SilkS) (width 0.12))
  (fp_line (start 1.6 -1.4) (end -1.6 -1.4) (layer F.Fab) (width 0.1))
  (fp_line (start 1.6 1.4) (end 1.6 -1.4) (layer F.Fab) (width 0.1))
  (fp_line (start -1.6 1.4) (end 1.6 1.4) (layer F.Fab) (width 0.1))
  (fp_line (start -1.6 -1.4) (end -1.6 1.4) (layer F.Fab) (width 0.1))
  (fp_line (start -0.6 -1.4) (end -1.6 -0.4) (layer F.Fab) (width 0.1))
  (fp_line (start 2.2 -1.75) (end -2.2 -1.75) (layer F.CrtYd) (width 0.05))
  (fp_line (start 2.2 1.75) (end 2.2 -1.75) (layer F.CrtYd) (width 0.05))
  (fp_line (start -2.2 1.75) (end 2.2 1.75) (layer F.CrtYd) (width 0.05))
  (fp_line (start -2.2 -1.75) (end -2.2 1.75) (layer F.CrtYd) (width 0.05))
  (fp_circle (center 0 0) (end 1.12 0) (layer F.Fab) (width 0.1))
  (fp_text user 1 (at -1.6 -1.8) (layer F.SilkS)
    (effects (font (size 1 1) (thickness 0.15)))
  )
  (pad 2 smd rect (at -1.7 0.7) (size 2 0.8) (layers F.Cu F.Paste F.Mask))
  (pad 3 smd rect (at 1.7 0.7) (size 2 0.8) (layers F.Cu F.Paste F.Mask))
  (pad 4 smd rect (at 1.7 -0.7) (size 2 0.8) (layers F.Cu F.Paste F.Mask))
  (pad 1 smd rect (at -1.7 -0.7) (size 2 0.8) (layers F.Cu F.Paste F.Mask))
  (model ${KISYS3DMOD}/LED_SMD.3dshapes/LED_Cree-PLCC4_3.2x2.8mm_CCW.wrl
    (at (xyz 0 0 0))
    (scale (xyz 1 1 1))
    (rotate (xyz 0 0 0))
  )
)
