%TF.GenerationSoftware,KiCad,Pcbnew,5.0.2+dfsg1-1*%
%TF.CreationDate,2020-05-26T23:49:29-04:00*%
%TF.ProjectId,Pinkey,50696e6b-6579-42e6-9b69-6361645f7063,rev?*%
%TF.SameCoordinates,Original*%
%TF.FileFunction,Legend,Top*%
%TF.FilePolarity,Positive*%
%FSLAX46Y46*%
G04 Gerber Fmt 4.6, Leading zero omitted, Abs format (unit mm)*
G04 Created by KiCad (PCBNEW 5.0.2+dfsg1-1) date Tue 26 May 2020 11:49:29 PM EDT*
%MOMM*%
%LPD*%
G01*
G04 APERTURE LIST*
%ADD10C,0.120000*%
%ADD11C,0.150000*%
%ADD12R,2.400000X1.200000*%
%ADD13C,2.100000*%
%ADD14C,4.400000*%
%ADD15C,2.600000*%
%ADD16O,1.300000X2.100000*%
%ADD17O,1.300000X2.800000*%
%ADD18C,1.050000*%
%ADD19R,2.100000X2.100000*%
%ADD20O,2.100000X2.100000*%
%ADD21C,3.100000*%
G04 APERTURE END LIST*
D10*
X208350000Y-126550000D02*
X210900000Y-126550000D01*
X207000000Y-129550000D02*
X210900000Y-129550000D01*
X132475000Y-163565000D02*
X132475000Y-149595000D01*
X146445000Y-163565000D02*
X132475000Y-163565000D01*
X146445000Y-149595000D02*
X146445000Y-163565000D01*
X132475000Y-149595000D02*
X146445000Y-149595000D01*
X156475000Y-163565000D02*
X156475000Y-149595000D01*
X170445000Y-163565000D02*
X156475000Y-163565000D01*
X170445000Y-149595000D02*
X170445000Y-163565000D01*
X156475000Y-149595000D02*
X170445000Y-149595000D01*
X247475000Y-163565000D02*
X247475000Y-149595000D01*
X261445000Y-163565000D02*
X247475000Y-163565000D01*
X261445000Y-149595000D02*
X261445000Y-163565000D01*
X247475000Y-149595000D02*
X261445000Y-149595000D01*
X180475000Y-163565000D02*
X180475000Y-149595000D01*
X194445000Y-163565000D02*
X180475000Y-163565000D01*
X194445000Y-149595000D02*
X194445000Y-163565000D01*
X180475000Y-149595000D02*
X194445000Y-149595000D01*
X223475000Y-163565000D02*
X223475000Y-149595000D01*
X237445000Y-163565000D02*
X223475000Y-163565000D01*
X237445000Y-149595000D02*
X237445000Y-163565000D01*
X223475000Y-149595000D02*
X237445000Y-149595000D01*
X271475000Y-163565000D02*
X271475000Y-149595000D01*
X285445000Y-163565000D02*
X271475000Y-163565000D01*
X285445000Y-149595000D02*
X285445000Y-163565000D01*
X271475000Y-149595000D02*
X285445000Y-149595000D01*
X88175000Y-106565000D02*
X88175000Y-92595000D01*
X102145000Y-106565000D02*
X88175000Y-106565000D01*
X102145000Y-92595000D02*
X102145000Y-106565000D01*
X88175000Y-92595000D02*
X102145000Y-92595000D01*
X154515000Y-125565000D02*
X154515000Y-111595000D01*
X168485000Y-125565000D02*
X154515000Y-125565000D01*
X168485000Y-111595000D02*
X168485000Y-125565000D01*
X154515000Y-111595000D02*
X168485000Y-111595000D01*
X111975000Y-106565000D02*
X111975000Y-92595000D01*
X125945000Y-106565000D02*
X111975000Y-106565000D01*
X125945000Y-92595000D02*
X125945000Y-106565000D01*
X111975000Y-92595000D02*
X125945000Y-92595000D01*
X130975000Y-106565000D02*
X130975000Y-92595000D01*
X144945000Y-106565000D02*
X130975000Y-106565000D01*
X144945000Y-92595000D02*
X144945000Y-106565000D01*
X130975000Y-92595000D02*
X144945000Y-92595000D01*
X149975000Y-106565000D02*
X149975000Y-92595000D01*
X163945000Y-106565000D02*
X149975000Y-106565000D01*
X163945000Y-92595000D02*
X163945000Y-106565000D01*
X149975000Y-92595000D02*
X163945000Y-92595000D01*
X168975000Y-106565000D02*
X168975000Y-92595000D01*
X182945000Y-106565000D02*
X168975000Y-106565000D01*
X182945000Y-92595000D02*
X182945000Y-106565000D01*
X168975000Y-92595000D02*
X182945000Y-92595000D01*
X187975000Y-106565000D02*
X187975000Y-92595000D01*
X201945000Y-106565000D02*
X187975000Y-106565000D01*
X201945000Y-92595000D02*
X201945000Y-106565000D01*
X187975000Y-92595000D02*
X201945000Y-92595000D01*
X206975000Y-106565000D02*
X206975000Y-92595000D01*
X220945000Y-106565000D02*
X206975000Y-106565000D01*
X220945000Y-92595000D02*
X220945000Y-106565000D01*
X206975000Y-92595000D02*
X220945000Y-92595000D01*
X225975000Y-106565000D02*
X225975000Y-92595000D01*
X239945000Y-106565000D02*
X225975000Y-106565000D01*
X239945000Y-92595000D02*
X239945000Y-106565000D01*
X225975000Y-92595000D02*
X239945000Y-92595000D01*
X245015000Y-106565000D02*
X245015000Y-92595000D01*
X258985000Y-106565000D02*
X245015000Y-106565000D01*
X258985000Y-92595000D02*
X258985000Y-106565000D01*
X245015000Y-92595000D02*
X258985000Y-92595000D01*
X263975000Y-106565000D02*
X263975000Y-92595000D01*
X277945000Y-106565000D02*
X263975000Y-106565000D01*
X277945000Y-92595000D02*
X277945000Y-106565000D01*
X263975000Y-92595000D02*
X277945000Y-92595000D01*
X282975000Y-106565000D02*
X282975000Y-92595000D01*
X296945000Y-106565000D02*
X282975000Y-106565000D01*
X296945000Y-92595000D02*
X296945000Y-106565000D01*
X282975000Y-92595000D02*
X296945000Y-92595000D01*
X301975000Y-106565000D02*
X301975000Y-92595000D01*
X315945000Y-106565000D02*
X301975000Y-106565000D01*
X315945000Y-92595000D02*
X315945000Y-106565000D01*
X301975000Y-92595000D02*
X315945000Y-92595000D01*
X116475000Y-125565000D02*
X116475000Y-111595000D01*
X130445000Y-125565000D02*
X116475000Y-125565000D01*
X130445000Y-111595000D02*
X130445000Y-125565000D01*
X116475000Y-111595000D02*
X130445000Y-111595000D01*
X321015000Y-106565000D02*
X321015000Y-92595000D01*
X334985000Y-106565000D02*
X321015000Y-106565000D01*
X334985000Y-92595000D02*
X334985000Y-106565000D01*
X321015000Y-92595000D02*
X334985000Y-92595000D01*
X135475000Y-125565000D02*
X135475000Y-111595000D01*
X149445000Y-125565000D02*
X135475000Y-125565000D01*
X149445000Y-111595000D02*
X149445000Y-125565000D01*
X135475000Y-111595000D02*
X149445000Y-111595000D01*
X173475000Y-125565000D02*
X173475000Y-111595000D01*
X187445000Y-125565000D02*
X173475000Y-125565000D01*
X187445000Y-111595000D02*
X187445000Y-125565000D01*
X173475000Y-111595000D02*
X187445000Y-111595000D01*
X192475000Y-125565000D02*
X192475000Y-111595000D01*
X206445000Y-125565000D02*
X192475000Y-125565000D01*
X206445000Y-111595000D02*
X206445000Y-125565000D01*
X192475000Y-111595000D02*
X206445000Y-111595000D01*
X211475000Y-125565000D02*
X211475000Y-111595000D01*
X225445000Y-125565000D02*
X211475000Y-125565000D01*
X225445000Y-111595000D02*
X225445000Y-125565000D01*
X211475000Y-111595000D02*
X225445000Y-111595000D01*
X230475000Y-125565000D02*
X230475000Y-111595000D01*
X244445000Y-125565000D02*
X230475000Y-125565000D01*
X244445000Y-111595000D02*
X244445000Y-125565000D01*
X230475000Y-111595000D02*
X244445000Y-111595000D01*
X249325000Y-125525000D02*
X249325000Y-111555000D01*
X263295000Y-125525000D02*
X249325000Y-125525000D01*
X263295000Y-111555000D02*
X263295000Y-125525000D01*
X249325000Y-111555000D02*
X263295000Y-111555000D01*
X268475000Y-125565000D02*
X268475000Y-111595000D01*
X282445000Y-125565000D02*
X268475000Y-125565000D01*
X282445000Y-111595000D02*
X282445000Y-125565000D01*
X268475000Y-111595000D02*
X282445000Y-111595000D01*
X87975000Y-144565000D02*
X87975000Y-130595000D01*
X101945000Y-144565000D02*
X87975000Y-144565000D01*
X101945000Y-130595000D02*
X101945000Y-144565000D01*
X87975000Y-130595000D02*
X101945000Y-130595000D01*
X106975000Y-144565000D02*
X106975000Y-130595000D01*
X120945000Y-144565000D02*
X106975000Y-144565000D01*
X120945000Y-130595000D02*
X120945000Y-144565000D01*
X106975000Y-130595000D02*
X120945000Y-130595000D01*
X125975000Y-144565000D02*
X125975000Y-130595000D01*
X139945000Y-144565000D02*
X125975000Y-144565000D01*
X139945000Y-130595000D02*
X139945000Y-144565000D01*
X125975000Y-130595000D02*
X139945000Y-130595000D01*
X144975000Y-144565000D02*
X144975000Y-130595000D01*
X158945000Y-144565000D02*
X144975000Y-144565000D01*
X158945000Y-130595000D02*
X158945000Y-144565000D01*
X144975000Y-130595000D02*
X158945000Y-130595000D01*
X163975000Y-144565000D02*
X163975000Y-130595000D01*
X177945000Y-144565000D02*
X163975000Y-144565000D01*
X177945000Y-130595000D02*
X177945000Y-144565000D01*
X163975000Y-130595000D02*
X177945000Y-130595000D01*
X182975000Y-144565000D02*
X182975000Y-130595000D01*
X196945000Y-144565000D02*
X182975000Y-144565000D01*
X196945000Y-130595000D02*
X196945000Y-144565000D01*
X182975000Y-130595000D02*
X196945000Y-130595000D01*
X201975000Y-144565000D02*
X201975000Y-130595000D01*
X215945000Y-144565000D02*
X201975000Y-144565000D01*
X215945000Y-130595000D02*
X215945000Y-144565000D01*
X201975000Y-130595000D02*
X215945000Y-130595000D01*
X220975000Y-144565000D02*
X220975000Y-130595000D01*
X234945000Y-144565000D02*
X220975000Y-144565000D01*
X234945000Y-130595000D02*
X234945000Y-144565000D01*
X220975000Y-130595000D02*
X234945000Y-130595000D01*
X239975000Y-144565000D02*
X239975000Y-130595000D01*
X253945000Y-144565000D02*
X239975000Y-144565000D01*
X253945000Y-130595000D02*
X253945000Y-144565000D01*
X239975000Y-130595000D02*
X253945000Y-130595000D01*
X258975000Y-144565000D02*
X258975000Y-130595000D01*
X272945000Y-144565000D02*
X258975000Y-144565000D01*
X272945000Y-130595000D02*
X272945000Y-144565000D01*
X258975000Y-130595000D02*
X272945000Y-130595000D01*
X110975000Y-163565000D02*
X110975000Y-149595000D01*
X124945000Y-163565000D02*
X110975000Y-163565000D01*
X124945000Y-149595000D02*
X124945000Y-163565000D01*
X110975000Y-149595000D02*
X124945000Y-149595000D01*
X201975000Y-163565000D02*
X201975000Y-149595000D01*
X215945000Y-163565000D02*
X201975000Y-163565000D01*
X215945000Y-149595000D02*
X215945000Y-163565000D01*
X201975000Y-149595000D02*
X215945000Y-149595000D01*
X287475000Y-125565000D02*
X287475000Y-111595000D01*
X301445000Y-125565000D02*
X287475000Y-125565000D01*
X301445000Y-111595000D02*
X301445000Y-125565000D01*
X287475000Y-111595000D02*
X301445000Y-111595000D01*
X306475000Y-125565000D02*
X306475000Y-111595000D01*
X320445000Y-125565000D02*
X306475000Y-125565000D01*
X320445000Y-111595000D02*
X320445000Y-125565000D01*
X306475000Y-111595000D02*
X320445000Y-111595000D01*
X325475000Y-125565000D02*
X325475000Y-111595000D01*
X339445000Y-125565000D02*
X325475000Y-125565000D01*
X339445000Y-111595000D02*
X339445000Y-125565000D01*
X325475000Y-111595000D02*
X339445000Y-111595000D01*
X277975000Y-144565000D02*
X277975000Y-130595000D01*
X291945000Y-144565000D02*
X277975000Y-144565000D01*
X291945000Y-130595000D02*
X291945000Y-144565000D01*
X277975000Y-130595000D02*
X291945000Y-130595000D01*
X296975000Y-144565000D02*
X296975000Y-130595000D01*
X310945000Y-144565000D02*
X296975000Y-144565000D01*
X310945000Y-130595000D02*
X310945000Y-144565000D01*
X296975000Y-130595000D02*
X310945000Y-130595000D01*
X97475000Y-125565000D02*
X97475000Y-111595000D01*
X111445000Y-125565000D02*
X97475000Y-125565000D01*
X111445000Y-111595000D02*
X111445000Y-125565000D01*
X97475000Y-111595000D02*
X111445000Y-111595000D01*
X315975000Y-144565000D02*
X315975000Y-130595000D01*
X329945000Y-144565000D02*
X315975000Y-144565000D01*
X329945000Y-130595000D02*
X329945000Y-144565000D01*
X315975000Y-130595000D02*
X329945000Y-130595000D01*
X292975000Y-163565000D02*
X292975000Y-149595000D01*
X306945000Y-163565000D02*
X292975000Y-163565000D01*
X306945000Y-149595000D02*
X306945000Y-163565000D01*
X292975000Y-149595000D02*
X306945000Y-149595000D01*
X78475000Y-125565000D02*
X78475000Y-111595000D01*
X92445000Y-125565000D02*
X78475000Y-125565000D01*
X92445000Y-111595000D02*
X92445000Y-125565000D01*
X78475000Y-111595000D02*
X92445000Y-111595000D01*
D11*
X207635714Y-126702380D02*
X207064285Y-126702380D01*
X207350000Y-126702380D02*
X207350000Y-125702380D01*
X207254761Y-125845238D01*
X207159523Y-125940476D01*
X207064285Y-125988095D01*
X137698095Y-149158380D02*
X137698095Y-148158380D01*
X138031428Y-148872666D01*
X138364761Y-148158380D01*
X138364761Y-149158380D01*
X138745714Y-148158380D02*
X139412380Y-149158380D01*
X139412380Y-148158380D02*
X138745714Y-149158380D01*
X139698095Y-148158380D02*
X140317142Y-148158380D01*
X139983809Y-148539333D01*
X140126666Y-148539333D01*
X140221904Y-148586952D01*
X140269523Y-148634571D01*
X140317142Y-148729809D01*
X140317142Y-148967904D01*
X140269523Y-149063142D01*
X140221904Y-149110761D01*
X140126666Y-149158380D01*
X139840952Y-149158380D01*
X139745714Y-149110761D01*
X139698095Y-149063142D01*
X140698095Y-148253619D02*
X140745714Y-148206000D01*
X140840952Y-148158380D01*
X141079047Y-148158380D01*
X141174285Y-148206000D01*
X141221904Y-148253619D01*
X141269523Y-148348857D01*
X141269523Y-148444095D01*
X141221904Y-148586952D01*
X140650476Y-149158380D01*
X141269523Y-149158380D01*
X161698095Y-149158380D02*
X161698095Y-148158380D01*
X162031428Y-148872666D01*
X162364761Y-148158380D01*
X162364761Y-149158380D01*
X162745714Y-148158380D02*
X163412380Y-149158380D01*
X163412380Y-148158380D02*
X162745714Y-149158380D01*
X163698095Y-148158380D02*
X164317142Y-148158380D01*
X163983809Y-148539333D01*
X164126666Y-148539333D01*
X164221904Y-148586952D01*
X164269523Y-148634571D01*
X164317142Y-148729809D01*
X164317142Y-148967904D01*
X164269523Y-149063142D01*
X164221904Y-149110761D01*
X164126666Y-149158380D01*
X163840952Y-149158380D01*
X163745714Y-149110761D01*
X163698095Y-149063142D01*
X164650476Y-148158380D02*
X165269523Y-148158380D01*
X164936190Y-148539333D01*
X165079047Y-148539333D01*
X165174285Y-148586952D01*
X165221904Y-148634571D01*
X165269523Y-148729809D01*
X165269523Y-148967904D01*
X165221904Y-149063142D01*
X165174285Y-149110761D01*
X165079047Y-149158380D01*
X164793333Y-149158380D01*
X164698095Y-149110761D01*
X164650476Y-149063142D01*
X252698095Y-149158380D02*
X252698095Y-148158380D01*
X253031428Y-148872666D01*
X253364761Y-148158380D01*
X253364761Y-149158380D01*
X253745714Y-148158380D02*
X254412380Y-149158380D01*
X254412380Y-148158380D02*
X253745714Y-149158380D01*
X254698095Y-148158380D02*
X255317142Y-148158380D01*
X254983809Y-148539333D01*
X255126666Y-148539333D01*
X255221904Y-148586952D01*
X255269523Y-148634571D01*
X255317142Y-148729809D01*
X255317142Y-148967904D01*
X255269523Y-149063142D01*
X255221904Y-149110761D01*
X255126666Y-149158380D01*
X254840952Y-149158380D01*
X254745714Y-149110761D01*
X254698095Y-149063142D01*
X255888571Y-148586952D02*
X255793333Y-148539333D01*
X255745714Y-148491714D01*
X255698095Y-148396476D01*
X255698095Y-148348857D01*
X255745714Y-148253619D01*
X255793333Y-148206000D01*
X255888571Y-148158380D01*
X256079047Y-148158380D01*
X256174285Y-148206000D01*
X256221904Y-148253619D01*
X256269523Y-148348857D01*
X256269523Y-148396476D01*
X256221904Y-148491714D01*
X256174285Y-148539333D01*
X256079047Y-148586952D01*
X255888571Y-148586952D01*
X255793333Y-148634571D01*
X255745714Y-148682190D01*
X255698095Y-148777428D01*
X255698095Y-148967904D01*
X255745714Y-149063142D01*
X255793333Y-149110761D01*
X255888571Y-149158380D01*
X256079047Y-149158380D01*
X256174285Y-149110761D01*
X256221904Y-149063142D01*
X256269523Y-148967904D01*
X256269523Y-148777428D01*
X256221904Y-148682190D01*
X256174285Y-148634571D01*
X256079047Y-148586952D01*
X185698095Y-149158380D02*
X185698095Y-148158380D01*
X186031428Y-148872666D01*
X186364761Y-148158380D01*
X186364761Y-149158380D01*
X186745714Y-148158380D02*
X187412380Y-149158380D01*
X187412380Y-148158380D02*
X186745714Y-149158380D01*
X187698095Y-148158380D02*
X188317142Y-148158380D01*
X187983809Y-148539333D01*
X188126666Y-148539333D01*
X188221904Y-148586952D01*
X188269523Y-148634571D01*
X188317142Y-148729809D01*
X188317142Y-148967904D01*
X188269523Y-149063142D01*
X188221904Y-149110761D01*
X188126666Y-149158380D01*
X187840952Y-149158380D01*
X187745714Y-149110761D01*
X187698095Y-149063142D01*
X189221904Y-148158380D02*
X188745714Y-148158380D01*
X188698095Y-148634571D01*
X188745714Y-148586952D01*
X188840952Y-148539333D01*
X189079047Y-148539333D01*
X189174285Y-148586952D01*
X189221904Y-148634571D01*
X189269523Y-148729809D01*
X189269523Y-148967904D01*
X189221904Y-149063142D01*
X189174285Y-149110761D01*
X189079047Y-149158380D01*
X188840952Y-149158380D01*
X188745714Y-149110761D01*
X188698095Y-149063142D01*
X228698095Y-149158380D02*
X228698095Y-148158380D01*
X229031428Y-148872666D01*
X229364761Y-148158380D01*
X229364761Y-149158380D01*
X229745714Y-148158380D02*
X230412380Y-149158380D01*
X230412380Y-148158380D02*
X229745714Y-149158380D01*
X230698095Y-148158380D02*
X231317142Y-148158380D01*
X230983809Y-148539333D01*
X231126666Y-148539333D01*
X231221904Y-148586952D01*
X231269523Y-148634571D01*
X231317142Y-148729809D01*
X231317142Y-148967904D01*
X231269523Y-149063142D01*
X231221904Y-149110761D01*
X231126666Y-149158380D01*
X230840952Y-149158380D01*
X230745714Y-149110761D01*
X230698095Y-149063142D01*
X231650476Y-148158380D02*
X232317142Y-148158380D01*
X231888571Y-149158380D01*
X276698095Y-149158380D02*
X276698095Y-148158380D01*
X277031428Y-148872666D01*
X277364761Y-148158380D01*
X277364761Y-149158380D01*
X277745714Y-148158380D02*
X278412380Y-149158380D01*
X278412380Y-148158380D02*
X277745714Y-149158380D01*
X278698095Y-148158380D02*
X279317142Y-148158380D01*
X278983809Y-148539333D01*
X279126666Y-148539333D01*
X279221904Y-148586952D01*
X279269523Y-148634571D01*
X279317142Y-148729809D01*
X279317142Y-148967904D01*
X279269523Y-149063142D01*
X279221904Y-149110761D01*
X279126666Y-149158380D01*
X278840952Y-149158380D01*
X278745714Y-149110761D01*
X278698095Y-149063142D01*
X279793333Y-149158380D02*
X279983809Y-149158380D01*
X280079047Y-149110761D01*
X280126666Y-149063142D01*
X280221904Y-148920285D01*
X280269523Y-148729809D01*
X280269523Y-148348857D01*
X280221904Y-148253619D01*
X280174285Y-148206000D01*
X280079047Y-148158380D01*
X279888571Y-148158380D01*
X279793333Y-148206000D01*
X279745714Y-148253619D01*
X279698095Y-148348857D01*
X279698095Y-148586952D01*
X279745714Y-148682190D01*
X279793333Y-148729809D01*
X279888571Y-148777428D01*
X280079047Y-148777428D01*
X280174285Y-148729809D01*
X280221904Y-148682190D01*
X280269523Y-148586952D01*
X93398095Y-92158380D02*
X93398095Y-91158380D01*
X93731428Y-91872666D01*
X94064761Y-91158380D01*
X94064761Y-92158380D01*
X94445714Y-91158380D02*
X95112380Y-92158380D01*
X95112380Y-91158380D02*
X94445714Y-92158380D01*
X95683809Y-91158380D02*
X95779047Y-91158380D01*
X95874285Y-91206000D01*
X95921904Y-91253619D01*
X95969523Y-91348857D01*
X96017142Y-91539333D01*
X96017142Y-91777428D01*
X95969523Y-91967904D01*
X95921904Y-92063142D01*
X95874285Y-92110761D01*
X95779047Y-92158380D01*
X95683809Y-92158380D01*
X95588571Y-92110761D01*
X95540952Y-92063142D01*
X95493333Y-91967904D01*
X95445714Y-91777428D01*
X95445714Y-91539333D01*
X95493333Y-91348857D01*
X95540952Y-91253619D01*
X95588571Y-91206000D01*
X95683809Y-91158380D01*
X96636190Y-91158380D02*
X96731428Y-91158380D01*
X96826666Y-91206000D01*
X96874285Y-91253619D01*
X96921904Y-91348857D01*
X96969523Y-91539333D01*
X96969523Y-91777428D01*
X96921904Y-91967904D01*
X96874285Y-92063142D01*
X96826666Y-92110761D01*
X96731428Y-92158380D01*
X96636190Y-92158380D01*
X96540952Y-92110761D01*
X96493333Y-92063142D01*
X96445714Y-91967904D01*
X96398095Y-91777428D01*
X96398095Y-91539333D01*
X96445714Y-91348857D01*
X96493333Y-91253619D01*
X96540952Y-91206000D01*
X96636190Y-91158380D01*
X159738095Y-111158380D02*
X159738095Y-110158380D01*
X160071428Y-110872666D01*
X160404761Y-110158380D01*
X160404761Y-111158380D01*
X160785714Y-110158380D02*
X161452380Y-111158380D01*
X161452380Y-110158380D02*
X160785714Y-111158380D01*
X162357142Y-111158380D02*
X161785714Y-111158380D01*
X162071428Y-111158380D02*
X162071428Y-110158380D01*
X161976190Y-110301238D01*
X161880952Y-110396476D01*
X161785714Y-110444095D01*
X162690476Y-110158380D02*
X163309523Y-110158380D01*
X162976190Y-110539333D01*
X163119047Y-110539333D01*
X163214285Y-110586952D01*
X163261904Y-110634571D01*
X163309523Y-110729809D01*
X163309523Y-110967904D01*
X163261904Y-111063142D01*
X163214285Y-111110761D01*
X163119047Y-111158380D01*
X162833333Y-111158380D01*
X162738095Y-111110761D01*
X162690476Y-111063142D01*
X117198095Y-92158380D02*
X117198095Y-91158380D01*
X117531428Y-91872666D01*
X117864761Y-91158380D01*
X117864761Y-92158380D01*
X118245714Y-91158380D02*
X118912380Y-92158380D01*
X118912380Y-91158380D02*
X118245714Y-92158380D01*
X119483809Y-91158380D02*
X119579047Y-91158380D01*
X119674285Y-91206000D01*
X119721904Y-91253619D01*
X119769523Y-91348857D01*
X119817142Y-91539333D01*
X119817142Y-91777428D01*
X119769523Y-91967904D01*
X119721904Y-92063142D01*
X119674285Y-92110761D01*
X119579047Y-92158380D01*
X119483809Y-92158380D01*
X119388571Y-92110761D01*
X119340952Y-92063142D01*
X119293333Y-91967904D01*
X119245714Y-91777428D01*
X119245714Y-91539333D01*
X119293333Y-91348857D01*
X119340952Y-91253619D01*
X119388571Y-91206000D01*
X119483809Y-91158380D01*
X120769523Y-92158380D02*
X120198095Y-92158380D01*
X120483809Y-92158380D02*
X120483809Y-91158380D01*
X120388571Y-91301238D01*
X120293333Y-91396476D01*
X120198095Y-91444095D01*
X136198095Y-92158380D02*
X136198095Y-91158380D01*
X136531428Y-91872666D01*
X136864761Y-91158380D01*
X136864761Y-92158380D01*
X137245714Y-91158380D02*
X137912380Y-92158380D01*
X137912380Y-91158380D02*
X137245714Y-92158380D01*
X138483809Y-91158380D02*
X138579047Y-91158380D01*
X138674285Y-91206000D01*
X138721904Y-91253619D01*
X138769523Y-91348857D01*
X138817142Y-91539333D01*
X138817142Y-91777428D01*
X138769523Y-91967904D01*
X138721904Y-92063142D01*
X138674285Y-92110761D01*
X138579047Y-92158380D01*
X138483809Y-92158380D01*
X138388571Y-92110761D01*
X138340952Y-92063142D01*
X138293333Y-91967904D01*
X138245714Y-91777428D01*
X138245714Y-91539333D01*
X138293333Y-91348857D01*
X138340952Y-91253619D01*
X138388571Y-91206000D01*
X138483809Y-91158380D01*
X139198095Y-91253619D02*
X139245714Y-91206000D01*
X139340952Y-91158380D01*
X139579047Y-91158380D01*
X139674285Y-91206000D01*
X139721904Y-91253619D01*
X139769523Y-91348857D01*
X139769523Y-91444095D01*
X139721904Y-91586952D01*
X139150476Y-92158380D01*
X139769523Y-92158380D01*
X155198095Y-92158380D02*
X155198095Y-91158380D01*
X155531428Y-91872666D01*
X155864761Y-91158380D01*
X155864761Y-92158380D01*
X156245714Y-91158380D02*
X156912380Y-92158380D01*
X156912380Y-91158380D02*
X156245714Y-92158380D01*
X157483809Y-91158380D02*
X157579047Y-91158380D01*
X157674285Y-91206000D01*
X157721904Y-91253619D01*
X157769523Y-91348857D01*
X157817142Y-91539333D01*
X157817142Y-91777428D01*
X157769523Y-91967904D01*
X157721904Y-92063142D01*
X157674285Y-92110761D01*
X157579047Y-92158380D01*
X157483809Y-92158380D01*
X157388571Y-92110761D01*
X157340952Y-92063142D01*
X157293333Y-91967904D01*
X157245714Y-91777428D01*
X157245714Y-91539333D01*
X157293333Y-91348857D01*
X157340952Y-91253619D01*
X157388571Y-91206000D01*
X157483809Y-91158380D01*
X158150476Y-91158380D02*
X158769523Y-91158380D01*
X158436190Y-91539333D01*
X158579047Y-91539333D01*
X158674285Y-91586952D01*
X158721904Y-91634571D01*
X158769523Y-91729809D01*
X158769523Y-91967904D01*
X158721904Y-92063142D01*
X158674285Y-92110761D01*
X158579047Y-92158380D01*
X158293333Y-92158380D01*
X158198095Y-92110761D01*
X158150476Y-92063142D01*
X174198095Y-92158380D02*
X174198095Y-91158380D01*
X174531428Y-91872666D01*
X174864761Y-91158380D01*
X174864761Y-92158380D01*
X175245714Y-91158380D02*
X175912380Y-92158380D01*
X175912380Y-91158380D02*
X175245714Y-92158380D01*
X176483809Y-91158380D02*
X176579047Y-91158380D01*
X176674285Y-91206000D01*
X176721904Y-91253619D01*
X176769523Y-91348857D01*
X176817142Y-91539333D01*
X176817142Y-91777428D01*
X176769523Y-91967904D01*
X176721904Y-92063142D01*
X176674285Y-92110761D01*
X176579047Y-92158380D01*
X176483809Y-92158380D01*
X176388571Y-92110761D01*
X176340952Y-92063142D01*
X176293333Y-91967904D01*
X176245714Y-91777428D01*
X176245714Y-91539333D01*
X176293333Y-91348857D01*
X176340952Y-91253619D01*
X176388571Y-91206000D01*
X176483809Y-91158380D01*
X177674285Y-91491714D02*
X177674285Y-92158380D01*
X177436190Y-91110761D02*
X177198095Y-91825047D01*
X177817142Y-91825047D01*
X193198095Y-92158380D02*
X193198095Y-91158380D01*
X193531428Y-91872666D01*
X193864761Y-91158380D01*
X193864761Y-92158380D01*
X194245714Y-91158380D02*
X194912380Y-92158380D01*
X194912380Y-91158380D02*
X194245714Y-92158380D01*
X195483809Y-91158380D02*
X195579047Y-91158380D01*
X195674285Y-91206000D01*
X195721904Y-91253619D01*
X195769523Y-91348857D01*
X195817142Y-91539333D01*
X195817142Y-91777428D01*
X195769523Y-91967904D01*
X195721904Y-92063142D01*
X195674285Y-92110761D01*
X195579047Y-92158380D01*
X195483809Y-92158380D01*
X195388571Y-92110761D01*
X195340952Y-92063142D01*
X195293333Y-91967904D01*
X195245714Y-91777428D01*
X195245714Y-91539333D01*
X195293333Y-91348857D01*
X195340952Y-91253619D01*
X195388571Y-91206000D01*
X195483809Y-91158380D01*
X196721904Y-91158380D02*
X196245714Y-91158380D01*
X196198095Y-91634571D01*
X196245714Y-91586952D01*
X196340952Y-91539333D01*
X196579047Y-91539333D01*
X196674285Y-91586952D01*
X196721904Y-91634571D01*
X196769523Y-91729809D01*
X196769523Y-91967904D01*
X196721904Y-92063142D01*
X196674285Y-92110761D01*
X196579047Y-92158380D01*
X196340952Y-92158380D01*
X196245714Y-92110761D01*
X196198095Y-92063142D01*
X212198095Y-92158380D02*
X212198095Y-91158380D01*
X212531428Y-91872666D01*
X212864761Y-91158380D01*
X212864761Y-92158380D01*
X213245714Y-91158380D02*
X213912380Y-92158380D01*
X213912380Y-91158380D02*
X213245714Y-92158380D01*
X214483809Y-91158380D02*
X214579047Y-91158380D01*
X214674285Y-91206000D01*
X214721904Y-91253619D01*
X214769523Y-91348857D01*
X214817142Y-91539333D01*
X214817142Y-91777428D01*
X214769523Y-91967904D01*
X214721904Y-92063142D01*
X214674285Y-92110761D01*
X214579047Y-92158380D01*
X214483809Y-92158380D01*
X214388571Y-92110761D01*
X214340952Y-92063142D01*
X214293333Y-91967904D01*
X214245714Y-91777428D01*
X214245714Y-91539333D01*
X214293333Y-91348857D01*
X214340952Y-91253619D01*
X214388571Y-91206000D01*
X214483809Y-91158380D01*
X215674285Y-91158380D02*
X215483809Y-91158380D01*
X215388571Y-91206000D01*
X215340952Y-91253619D01*
X215245714Y-91396476D01*
X215198095Y-91586952D01*
X215198095Y-91967904D01*
X215245714Y-92063142D01*
X215293333Y-92110761D01*
X215388571Y-92158380D01*
X215579047Y-92158380D01*
X215674285Y-92110761D01*
X215721904Y-92063142D01*
X215769523Y-91967904D01*
X215769523Y-91729809D01*
X215721904Y-91634571D01*
X215674285Y-91586952D01*
X215579047Y-91539333D01*
X215388571Y-91539333D01*
X215293333Y-91586952D01*
X215245714Y-91634571D01*
X215198095Y-91729809D01*
X231198095Y-92158380D02*
X231198095Y-91158380D01*
X231531428Y-91872666D01*
X231864761Y-91158380D01*
X231864761Y-92158380D01*
X232245714Y-91158380D02*
X232912380Y-92158380D01*
X232912380Y-91158380D02*
X232245714Y-92158380D01*
X233483809Y-91158380D02*
X233579047Y-91158380D01*
X233674285Y-91206000D01*
X233721904Y-91253619D01*
X233769523Y-91348857D01*
X233817142Y-91539333D01*
X233817142Y-91777428D01*
X233769523Y-91967904D01*
X233721904Y-92063142D01*
X233674285Y-92110761D01*
X233579047Y-92158380D01*
X233483809Y-92158380D01*
X233388571Y-92110761D01*
X233340952Y-92063142D01*
X233293333Y-91967904D01*
X233245714Y-91777428D01*
X233245714Y-91539333D01*
X233293333Y-91348857D01*
X233340952Y-91253619D01*
X233388571Y-91206000D01*
X233483809Y-91158380D01*
X234150476Y-91158380D02*
X234817142Y-91158380D01*
X234388571Y-92158380D01*
X250238095Y-92158380D02*
X250238095Y-91158380D01*
X250571428Y-91872666D01*
X250904761Y-91158380D01*
X250904761Y-92158380D01*
X251285714Y-91158380D02*
X251952380Y-92158380D01*
X251952380Y-91158380D02*
X251285714Y-92158380D01*
X252523809Y-91158380D02*
X252619047Y-91158380D01*
X252714285Y-91206000D01*
X252761904Y-91253619D01*
X252809523Y-91348857D01*
X252857142Y-91539333D01*
X252857142Y-91777428D01*
X252809523Y-91967904D01*
X252761904Y-92063142D01*
X252714285Y-92110761D01*
X252619047Y-92158380D01*
X252523809Y-92158380D01*
X252428571Y-92110761D01*
X252380952Y-92063142D01*
X252333333Y-91967904D01*
X252285714Y-91777428D01*
X252285714Y-91539333D01*
X252333333Y-91348857D01*
X252380952Y-91253619D01*
X252428571Y-91206000D01*
X252523809Y-91158380D01*
X253428571Y-91586952D02*
X253333333Y-91539333D01*
X253285714Y-91491714D01*
X253238095Y-91396476D01*
X253238095Y-91348857D01*
X253285714Y-91253619D01*
X253333333Y-91206000D01*
X253428571Y-91158380D01*
X253619047Y-91158380D01*
X253714285Y-91206000D01*
X253761904Y-91253619D01*
X253809523Y-91348857D01*
X253809523Y-91396476D01*
X253761904Y-91491714D01*
X253714285Y-91539333D01*
X253619047Y-91586952D01*
X253428571Y-91586952D01*
X253333333Y-91634571D01*
X253285714Y-91682190D01*
X253238095Y-91777428D01*
X253238095Y-91967904D01*
X253285714Y-92063142D01*
X253333333Y-92110761D01*
X253428571Y-92158380D01*
X253619047Y-92158380D01*
X253714285Y-92110761D01*
X253761904Y-92063142D01*
X253809523Y-91967904D01*
X253809523Y-91777428D01*
X253761904Y-91682190D01*
X253714285Y-91634571D01*
X253619047Y-91586952D01*
X269198095Y-92158380D02*
X269198095Y-91158380D01*
X269531428Y-91872666D01*
X269864761Y-91158380D01*
X269864761Y-92158380D01*
X270245714Y-91158380D02*
X270912380Y-92158380D01*
X270912380Y-91158380D02*
X270245714Y-92158380D01*
X271483809Y-91158380D02*
X271579047Y-91158380D01*
X271674285Y-91206000D01*
X271721904Y-91253619D01*
X271769523Y-91348857D01*
X271817142Y-91539333D01*
X271817142Y-91777428D01*
X271769523Y-91967904D01*
X271721904Y-92063142D01*
X271674285Y-92110761D01*
X271579047Y-92158380D01*
X271483809Y-92158380D01*
X271388571Y-92110761D01*
X271340952Y-92063142D01*
X271293333Y-91967904D01*
X271245714Y-91777428D01*
X271245714Y-91539333D01*
X271293333Y-91348857D01*
X271340952Y-91253619D01*
X271388571Y-91206000D01*
X271483809Y-91158380D01*
X272293333Y-92158380D02*
X272483809Y-92158380D01*
X272579047Y-92110761D01*
X272626666Y-92063142D01*
X272721904Y-91920285D01*
X272769523Y-91729809D01*
X272769523Y-91348857D01*
X272721904Y-91253619D01*
X272674285Y-91206000D01*
X272579047Y-91158380D01*
X272388571Y-91158380D01*
X272293333Y-91206000D01*
X272245714Y-91253619D01*
X272198095Y-91348857D01*
X272198095Y-91586952D01*
X272245714Y-91682190D01*
X272293333Y-91729809D01*
X272388571Y-91777428D01*
X272579047Y-91777428D01*
X272674285Y-91729809D01*
X272721904Y-91682190D01*
X272769523Y-91586952D01*
X287721904Y-92158380D02*
X287721904Y-91158380D01*
X288055238Y-91872666D01*
X288388571Y-91158380D01*
X288388571Y-92158380D01*
X288769523Y-91158380D02*
X289436190Y-92158380D01*
X289436190Y-91158380D02*
X288769523Y-92158380D01*
X290007619Y-91158380D02*
X290102857Y-91158380D01*
X290198095Y-91206000D01*
X290245714Y-91253619D01*
X290293333Y-91348857D01*
X290340952Y-91539333D01*
X290340952Y-91777428D01*
X290293333Y-91967904D01*
X290245714Y-92063142D01*
X290198095Y-92110761D01*
X290102857Y-92158380D01*
X290007619Y-92158380D01*
X289912380Y-92110761D01*
X289864761Y-92063142D01*
X289817142Y-91967904D01*
X289769523Y-91777428D01*
X289769523Y-91539333D01*
X289817142Y-91348857D01*
X289864761Y-91253619D01*
X289912380Y-91206000D01*
X290007619Y-91158380D01*
X291293333Y-92158380D02*
X290721904Y-92158380D01*
X291007619Y-92158380D02*
X291007619Y-91158380D01*
X290912380Y-91301238D01*
X290817142Y-91396476D01*
X290721904Y-91444095D01*
X291912380Y-91158380D02*
X292007619Y-91158380D01*
X292102857Y-91206000D01*
X292150476Y-91253619D01*
X292198095Y-91348857D01*
X292245714Y-91539333D01*
X292245714Y-91777428D01*
X292198095Y-91967904D01*
X292150476Y-92063142D01*
X292102857Y-92110761D01*
X292007619Y-92158380D01*
X291912380Y-92158380D01*
X291817142Y-92110761D01*
X291769523Y-92063142D01*
X291721904Y-91967904D01*
X291674285Y-91777428D01*
X291674285Y-91539333D01*
X291721904Y-91348857D01*
X291769523Y-91253619D01*
X291817142Y-91206000D01*
X291912380Y-91158380D01*
X306721904Y-92158380D02*
X306721904Y-91158380D01*
X307055238Y-91872666D01*
X307388571Y-91158380D01*
X307388571Y-92158380D01*
X307769523Y-91158380D02*
X308436190Y-92158380D01*
X308436190Y-91158380D02*
X307769523Y-92158380D01*
X309007619Y-91158380D02*
X309102857Y-91158380D01*
X309198095Y-91206000D01*
X309245714Y-91253619D01*
X309293333Y-91348857D01*
X309340952Y-91539333D01*
X309340952Y-91777428D01*
X309293333Y-91967904D01*
X309245714Y-92063142D01*
X309198095Y-92110761D01*
X309102857Y-92158380D01*
X309007619Y-92158380D01*
X308912380Y-92110761D01*
X308864761Y-92063142D01*
X308817142Y-91967904D01*
X308769523Y-91777428D01*
X308769523Y-91539333D01*
X308817142Y-91348857D01*
X308864761Y-91253619D01*
X308912380Y-91206000D01*
X309007619Y-91158380D01*
X310293333Y-92158380D02*
X309721904Y-92158380D01*
X310007619Y-92158380D02*
X310007619Y-91158380D01*
X309912380Y-91301238D01*
X309817142Y-91396476D01*
X309721904Y-91444095D01*
X311245714Y-92158380D02*
X310674285Y-92158380D01*
X310960000Y-92158380D02*
X310960000Y-91158380D01*
X310864761Y-91301238D01*
X310769523Y-91396476D01*
X310674285Y-91444095D01*
X121698095Y-111158380D02*
X121698095Y-110158380D01*
X122031428Y-110872666D01*
X122364761Y-110158380D01*
X122364761Y-111158380D01*
X122745714Y-110158380D02*
X123412380Y-111158380D01*
X123412380Y-110158380D02*
X122745714Y-111158380D01*
X124317142Y-111158380D02*
X123745714Y-111158380D01*
X124031428Y-111158380D02*
X124031428Y-110158380D01*
X123936190Y-110301238D01*
X123840952Y-110396476D01*
X123745714Y-110444095D01*
X125269523Y-111158380D02*
X124698095Y-111158380D01*
X124983809Y-111158380D02*
X124983809Y-110158380D01*
X124888571Y-110301238D01*
X124793333Y-110396476D01*
X124698095Y-110444095D01*
X325761904Y-92158380D02*
X325761904Y-91158380D01*
X326095238Y-91872666D01*
X326428571Y-91158380D01*
X326428571Y-92158380D01*
X326809523Y-91158380D02*
X327476190Y-92158380D01*
X327476190Y-91158380D02*
X326809523Y-92158380D01*
X328047619Y-91158380D02*
X328142857Y-91158380D01*
X328238095Y-91206000D01*
X328285714Y-91253619D01*
X328333333Y-91348857D01*
X328380952Y-91539333D01*
X328380952Y-91777428D01*
X328333333Y-91967904D01*
X328285714Y-92063142D01*
X328238095Y-92110761D01*
X328142857Y-92158380D01*
X328047619Y-92158380D01*
X327952380Y-92110761D01*
X327904761Y-92063142D01*
X327857142Y-91967904D01*
X327809523Y-91777428D01*
X327809523Y-91539333D01*
X327857142Y-91348857D01*
X327904761Y-91253619D01*
X327952380Y-91206000D01*
X328047619Y-91158380D01*
X329333333Y-92158380D02*
X328761904Y-92158380D01*
X329047619Y-92158380D02*
X329047619Y-91158380D01*
X328952380Y-91301238D01*
X328857142Y-91396476D01*
X328761904Y-91444095D01*
X329714285Y-91253619D02*
X329761904Y-91206000D01*
X329857142Y-91158380D01*
X330095238Y-91158380D01*
X330190476Y-91206000D01*
X330238095Y-91253619D01*
X330285714Y-91348857D01*
X330285714Y-91444095D01*
X330238095Y-91586952D01*
X329666666Y-92158380D01*
X330285714Y-92158380D01*
X140698095Y-111158380D02*
X140698095Y-110158380D01*
X141031428Y-110872666D01*
X141364761Y-110158380D01*
X141364761Y-111158380D01*
X141745714Y-110158380D02*
X142412380Y-111158380D01*
X142412380Y-110158380D02*
X141745714Y-111158380D01*
X143317142Y-111158380D02*
X142745714Y-111158380D01*
X143031428Y-111158380D02*
X143031428Y-110158380D01*
X142936190Y-110301238D01*
X142840952Y-110396476D01*
X142745714Y-110444095D01*
X143698095Y-110253619D02*
X143745714Y-110206000D01*
X143840952Y-110158380D01*
X144079047Y-110158380D01*
X144174285Y-110206000D01*
X144221904Y-110253619D01*
X144269523Y-110348857D01*
X144269523Y-110444095D01*
X144221904Y-110586952D01*
X143650476Y-111158380D01*
X144269523Y-111158380D01*
X178698095Y-111158380D02*
X178698095Y-110158380D01*
X179031428Y-110872666D01*
X179364761Y-110158380D01*
X179364761Y-111158380D01*
X179745714Y-110158380D02*
X180412380Y-111158380D01*
X180412380Y-110158380D02*
X179745714Y-111158380D01*
X181317142Y-111158380D02*
X180745714Y-111158380D01*
X181031428Y-111158380D02*
X181031428Y-110158380D01*
X180936190Y-110301238D01*
X180840952Y-110396476D01*
X180745714Y-110444095D01*
X182174285Y-110491714D02*
X182174285Y-111158380D01*
X181936190Y-110110761D02*
X181698095Y-110825047D01*
X182317142Y-110825047D01*
X197698095Y-111158380D02*
X197698095Y-110158380D01*
X198031428Y-110872666D01*
X198364761Y-110158380D01*
X198364761Y-111158380D01*
X198745714Y-110158380D02*
X199412380Y-111158380D01*
X199412380Y-110158380D02*
X198745714Y-111158380D01*
X200317142Y-111158380D02*
X199745714Y-111158380D01*
X200031428Y-111158380D02*
X200031428Y-110158380D01*
X199936190Y-110301238D01*
X199840952Y-110396476D01*
X199745714Y-110444095D01*
X201221904Y-110158380D02*
X200745714Y-110158380D01*
X200698095Y-110634571D01*
X200745714Y-110586952D01*
X200840952Y-110539333D01*
X201079047Y-110539333D01*
X201174285Y-110586952D01*
X201221904Y-110634571D01*
X201269523Y-110729809D01*
X201269523Y-110967904D01*
X201221904Y-111063142D01*
X201174285Y-111110761D01*
X201079047Y-111158380D01*
X200840952Y-111158380D01*
X200745714Y-111110761D01*
X200698095Y-111063142D01*
X216698095Y-111158380D02*
X216698095Y-110158380D01*
X217031428Y-110872666D01*
X217364761Y-110158380D01*
X217364761Y-111158380D01*
X217745714Y-110158380D02*
X218412380Y-111158380D01*
X218412380Y-110158380D02*
X217745714Y-111158380D01*
X219317142Y-111158380D02*
X218745714Y-111158380D01*
X219031428Y-111158380D02*
X219031428Y-110158380D01*
X218936190Y-110301238D01*
X218840952Y-110396476D01*
X218745714Y-110444095D01*
X220174285Y-110158380D02*
X219983809Y-110158380D01*
X219888571Y-110206000D01*
X219840952Y-110253619D01*
X219745714Y-110396476D01*
X219698095Y-110586952D01*
X219698095Y-110967904D01*
X219745714Y-111063142D01*
X219793333Y-111110761D01*
X219888571Y-111158380D01*
X220079047Y-111158380D01*
X220174285Y-111110761D01*
X220221904Y-111063142D01*
X220269523Y-110967904D01*
X220269523Y-110729809D01*
X220221904Y-110634571D01*
X220174285Y-110586952D01*
X220079047Y-110539333D01*
X219888571Y-110539333D01*
X219793333Y-110586952D01*
X219745714Y-110634571D01*
X219698095Y-110729809D01*
X235698095Y-111158380D02*
X235698095Y-110158380D01*
X236031428Y-110872666D01*
X236364761Y-110158380D01*
X236364761Y-111158380D01*
X236745714Y-110158380D02*
X237412380Y-111158380D01*
X237412380Y-110158380D02*
X236745714Y-111158380D01*
X238317142Y-111158380D02*
X237745714Y-111158380D01*
X238031428Y-111158380D02*
X238031428Y-110158380D01*
X237936190Y-110301238D01*
X237840952Y-110396476D01*
X237745714Y-110444095D01*
X238650476Y-110158380D02*
X239317142Y-110158380D01*
X238888571Y-111158380D01*
X254548095Y-111118380D02*
X254548095Y-110118380D01*
X254881428Y-110832666D01*
X255214761Y-110118380D01*
X255214761Y-111118380D01*
X255595714Y-110118380D02*
X256262380Y-111118380D01*
X256262380Y-110118380D02*
X255595714Y-111118380D01*
X257167142Y-111118380D02*
X256595714Y-111118380D01*
X256881428Y-111118380D02*
X256881428Y-110118380D01*
X256786190Y-110261238D01*
X256690952Y-110356476D01*
X256595714Y-110404095D01*
X257738571Y-110546952D02*
X257643333Y-110499333D01*
X257595714Y-110451714D01*
X257548095Y-110356476D01*
X257548095Y-110308857D01*
X257595714Y-110213619D01*
X257643333Y-110166000D01*
X257738571Y-110118380D01*
X257929047Y-110118380D01*
X258024285Y-110166000D01*
X258071904Y-110213619D01*
X258119523Y-110308857D01*
X258119523Y-110356476D01*
X258071904Y-110451714D01*
X258024285Y-110499333D01*
X257929047Y-110546952D01*
X257738571Y-110546952D01*
X257643333Y-110594571D01*
X257595714Y-110642190D01*
X257548095Y-110737428D01*
X257548095Y-110927904D01*
X257595714Y-111023142D01*
X257643333Y-111070761D01*
X257738571Y-111118380D01*
X257929047Y-111118380D01*
X258024285Y-111070761D01*
X258071904Y-111023142D01*
X258119523Y-110927904D01*
X258119523Y-110737428D01*
X258071904Y-110642190D01*
X258024285Y-110594571D01*
X257929047Y-110546952D01*
X273698095Y-111158380D02*
X273698095Y-110158380D01*
X274031428Y-110872666D01*
X274364761Y-110158380D01*
X274364761Y-111158380D01*
X274745714Y-110158380D02*
X275412380Y-111158380D01*
X275412380Y-110158380D02*
X274745714Y-111158380D01*
X276317142Y-111158380D02*
X275745714Y-111158380D01*
X276031428Y-111158380D02*
X276031428Y-110158380D01*
X275936190Y-110301238D01*
X275840952Y-110396476D01*
X275745714Y-110444095D01*
X276793333Y-111158380D02*
X276983809Y-111158380D01*
X277079047Y-111110761D01*
X277126666Y-111063142D01*
X277221904Y-110920285D01*
X277269523Y-110729809D01*
X277269523Y-110348857D01*
X277221904Y-110253619D01*
X277174285Y-110206000D01*
X277079047Y-110158380D01*
X276888571Y-110158380D01*
X276793333Y-110206000D01*
X276745714Y-110253619D01*
X276698095Y-110348857D01*
X276698095Y-110586952D01*
X276745714Y-110682190D01*
X276793333Y-110729809D01*
X276888571Y-110777428D01*
X277079047Y-110777428D01*
X277174285Y-110729809D01*
X277221904Y-110682190D01*
X277269523Y-110586952D01*
X93198095Y-130158380D02*
X93198095Y-129158380D01*
X93531428Y-129872666D01*
X93864761Y-129158380D01*
X93864761Y-130158380D01*
X94245714Y-129158380D02*
X94912380Y-130158380D01*
X94912380Y-129158380D02*
X94245714Y-130158380D01*
X95245714Y-129253619D02*
X95293333Y-129206000D01*
X95388571Y-129158380D01*
X95626666Y-129158380D01*
X95721904Y-129206000D01*
X95769523Y-129253619D01*
X95817142Y-129348857D01*
X95817142Y-129444095D01*
X95769523Y-129586952D01*
X95198095Y-130158380D01*
X95817142Y-130158380D01*
X96436190Y-129158380D02*
X96531428Y-129158380D01*
X96626666Y-129206000D01*
X96674285Y-129253619D01*
X96721904Y-129348857D01*
X96769523Y-129539333D01*
X96769523Y-129777428D01*
X96721904Y-129967904D01*
X96674285Y-130063142D01*
X96626666Y-130110761D01*
X96531428Y-130158380D01*
X96436190Y-130158380D01*
X96340952Y-130110761D01*
X96293333Y-130063142D01*
X96245714Y-129967904D01*
X96198095Y-129777428D01*
X96198095Y-129539333D01*
X96245714Y-129348857D01*
X96293333Y-129253619D01*
X96340952Y-129206000D01*
X96436190Y-129158380D01*
X112198095Y-130158380D02*
X112198095Y-129158380D01*
X112531428Y-129872666D01*
X112864761Y-129158380D01*
X112864761Y-130158380D01*
X113245714Y-129158380D02*
X113912380Y-130158380D01*
X113912380Y-129158380D02*
X113245714Y-130158380D01*
X114245714Y-129253619D02*
X114293333Y-129206000D01*
X114388571Y-129158380D01*
X114626666Y-129158380D01*
X114721904Y-129206000D01*
X114769523Y-129253619D01*
X114817142Y-129348857D01*
X114817142Y-129444095D01*
X114769523Y-129586952D01*
X114198095Y-130158380D01*
X114817142Y-130158380D01*
X115769523Y-130158380D02*
X115198095Y-130158380D01*
X115483809Y-130158380D02*
X115483809Y-129158380D01*
X115388571Y-129301238D01*
X115293333Y-129396476D01*
X115198095Y-129444095D01*
X131198095Y-130158380D02*
X131198095Y-129158380D01*
X131531428Y-129872666D01*
X131864761Y-129158380D01*
X131864761Y-130158380D01*
X132245714Y-129158380D02*
X132912380Y-130158380D01*
X132912380Y-129158380D02*
X132245714Y-130158380D01*
X133245714Y-129253619D02*
X133293333Y-129206000D01*
X133388571Y-129158380D01*
X133626666Y-129158380D01*
X133721904Y-129206000D01*
X133769523Y-129253619D01*
X133817142Y-129348857D01*
X133817142Y-129444095D01*
X133769523Y-129586952D01*
X133198095Y-130158380D01*
X133817142Y-130158380D01*
X134198095Y-129253619D02*
X134245714Y-129206000D01*
X134340952Y-129158380D01*
X134579047Y-129158380D01*
X134674285Y-129206000D01*
X134721904Y-129253619D01*
X134769523Y-129348857D01*
X134769523Y-129444095D01*
X134721904Y-129586952D01*
X134150476Y-130158380D01*
X134769523Y-130158380D01*
X150198095Y-130158380D02*
X150198095Y-129158380D01*
X150531428Y-129872666D01*
X150864761Y-129158380D01*
X150864761Y-130158380D01*
X151245714Y-129158380D02*
X151912380Y-130158380D01*
X151912380Y-129158380D02*
X151245714Y-130158380D01*
X152245714Y-129253619D02*
X152293333Y-129206000D01*
X152388571Y-129158380D01*
X152626666Y-129158380D01*
X152721904Y-129206000D01*
X152769523Y-129253619D01*
X152817142Y-129348857D01*
X152817142Y-129444095D01*
X152769523Y-129586952D01*
X152198095Y-130158380D01*
X152817142Y-130158380D01*
X153150476Y-129158380D02*
X153769523Y-129158380D01*
X153436190Y-129539333D01*
X153579047Y-129539333D01*
X153674285Y-129586952D01*
X153721904Y-129634571D01*
X153769523Y-129729809D01*
X153769523Y-129967904D01*
X153721904Y-130063142D01*
X153674285Y-130110761D01*
X153579047Y-130158380D01*
X153293333Y-130158380D01*
X153198095Y-130110761D01*
X153150476Y-130063142D01*
X169198095Y-130158380D02*
X169198095Y-129158380D01*
X169531428Y-129872666D01*
X169864761Y-129158380D01*
X169864761Y-130158380D01*
X170245714Y-129158380D02*
X170912380Y-130158380D01*
X170912380Y-129158380D02*
X170245714Y-130158380D01*
X171245714Y-129253619D02*
X171293333Y-129206000D01*
X171388571Y-129158380D01*
X171626666Y-129158380D01*
X171721904Y-129206000D01*
X171769523Y-129253619D01*
X171817142Y-129348857D01*
X171817142Y-129444095D01*
X171769523Y-129586952D01*
X171198095Y-130158380D01*
X171817142Y-130158380D01*
X172674285Y-129491714D02*
X172674285Y-130158380D01*
X172436190Y-129110761D02*
X172198095Y-129825047D01*
X172817142Y-129825047D01*
X188198095Y-130158380D02*
X188198095Y-129158380D01*
X188531428Y-129872666D01*
X188864761Y-129158380D01*
X188864761Y-130158380D01*
X189245714Y-129158380D02*
X189912380Y-130158380D01*
X189912380Y-129158380D02*
X189245714Y-130158380D01*
X190245714Y-129253619D02*
X190293333Y-129206000D01*
X190388571Y-129158380D01*
X190626666Y-129158380D01*
X190721904Y-129206000D01*
X190769523Y-129253619D01*
X190817142Y-129348857D01*
X190817142Y-129444095D01*
X190769523Y-129586952D01*
X190198095Y-130158380D01*
X190817142Y-130158380D01*
X191721904Y-129158380D02*
X191245714Y-129158380D01*
X191198095Y-129634571D01*
X191245714Y-129586952D01*
X191340952Y-129539333D01*
X191579047Y-129539333D01*
X191674285Y-129586952D01*
X191721904Y-129634571D01*
X191769523Y-129729809D01*
X191769523Y-129967904D01*
X191721904Y-130063142D01*
X191674285Y-130110761D01*
X191579047Y-130158380D01*
X191340952Y-130158380D01*
X191245714Y-130110761D01*
X191198095Y-130063142D01*
X205988095Y-132202380D02*
X205988095Y-131202380D01*
X206321428Y-131916666D01*
X206654761Y-131202380D01*
X206654761Y-132202380D01*
X207035714Y-131202380D02*
X207702380Y-132202380D01*
X207702380Y-131202380D02*
X207035714Y-132202380D01*
X208035714Y-131297619D02*
X208083333Y-131250000D01*
X208178571Y-131202380D01*
X208416666Y-131202380D01*
X208511904Y-131250000D01*
X208559523Y-131297619D01*
X208607142Y-131392857D01*
X208607142Y-131488095D01*
X208559523Y-131630952D01*
X207988095Y-132202380D01*
X208607142Y-132202380D01*
X209464285Y-131202380D02*
X209273809Y-131202380D01*
X209178571Y-131250000D01*
X209130952Y-131297619D01*
X209035714Y-131440476D01*
X208988095Y-131630952D01*
X208988095Y-132011904D01*
X209035714Y-132107142D01*
X209083333Y-132154761D01*
X209178571Y-132202380D01*
X209369047Y-132202380D01*
X209464285Y-132154761D01*
X209511904Y-132107142D01*
X209559523Y-132011904D01*
X209559523Y-131773809D01*
X209511904Y-131678571D01*
X209464285Y-131630952D01*
X209369047Y-131583333D01*
X209178571Y-131583333D01*
X209083333Y-131630952D01*
X209035714Y-131678571D01*
X208988095Y-131773809D01*
X226198095Y-130158380D02*
X226198095Y-129158380D01*
X226531428Y-129872666D01*
X226864761Y-129158380D01*
X226864761Y-130158380D01*
X227245714Y-129158380D02*
X227912380Y-130158380D01*
X227912380Y-129158380D02*
X227245714Y-130158380D01*
X228245714Y-129253619D02*
X228293333Y-129206000D01*
X228388571Y-129158380D01*
X228626666Y-129158380D01*
X228721904Y-129206000D01*
X228769523Y-129253619D01*
X228817142Y-129348857D01*
X228817142Y-129444095D01*
X228769523Y-129586952D01*
X228198095Y-130158380D01*
X228817142Y-130158380D01*
X229150476Y-129158380D02*
X229817142Y-129158380D01*
X229388571Y-130158380D01*
X245198095Y-130158380D02*
X245198095Y-129158380D01*
X245531428Y-129872666D01*
X245864761Y-129158380D01*
X245864761Y-130158380D01*
X246245714Y-129158380D02*
X246912380Y-130158380D01*
X246912380Y-129158380D02*
X246245714Y-130158380D01*
X247245714Y-129253619D02*
X247293333Y-129206000D01*
X247388571Y-129158380D01*
X247626666Y-129158380D01*
X247721904Y-129206000D01*
X247769523Y-129253619D01*
X247817142Y-129348857D01*
X247817142Y-129444095D01*
X247769523Y-129586952D01*
X247198095Y-130158380D01*
X247817142Y-130158380D01*
X248388571Y-129586952D02*
X248293333Y-129539333D01*
X248245714Y-129491714D01*
X248198095Y-129396476D01*
X248198095Y-129348857D01*
X248245714Y-129253619D01*
X248293333Y-129206000D01*
X248388571Y-129158380D01*
X248579047Y-129158380D01*
X248674285Y-129206000D01*
X248721904Y-129253619D01*
X248769523Y-129348857D01*
X248769523Y-129396476D01*
X248721904Y-129491714D01*
X248674285Y-129539333D01*
X248579047Y-129586952D01*
X248388571Y-129586952D01*
X248293333Y-129634571D01*
X248245714Y-129682190D01*
X248198095Y-129777428D01*
X248198095Y-129967904D01*
X248245714Y-130063142D01*
X248293333Y-130110761D01*
X248388571Y-130158380D01*
X248579047Y-130158380D01*
X248674285Y-130110761D01*
X248721904Y-130063142D01*
X248769523Y-129967904D01*
X248769523Y-129777428D01*
X248721904Y-129682190D01*
X248674285Y-129634571D01*
X248579047Y-129586952D01*
X264198095Y-130158380D02*
X264198095Y-129158380D01*
X264531428Y-129872666D01*
X264864761Y-129158380D01*
X264864761Y-130158380D01*
X265245714Y-129158380D02*
X265912380Y-130158380D01*
X265912380Y-129158380D02*
X265245714Y-130158380D01*
X266245714Y-129253619D02*
X266293333Y-129206000D01*
X266388571Y-129158380D01*
X266626666Y-129158380D01*
X266721904Y-129206000D01*
X266769523Y-129253619D01*
X266817142Y-129348857D01*
X266817142Y-129444095D01*
X266769523Y-129586952D01*
X266198095Y-130158380D01*
X266817142Y-130158380D01*
X267293333Y-130158380D02*
X267483809Y-130158380D01*
X267579047Y-130110761D01*
X267626666Y-130063142D01*
X267721904Y-129920285D01*
X267769523Y-129729809D01*
X267769523Y-129348857D01*
X267721904Y-129253619D01*
X267674285Y-129206000D01*
X267579047Y-129158380D01*
X267388571Y-129158380D01*
X267293333Y-129206000D01*
X267245714Y-129253619D01*
X267198095Y-129348857D01*
X267198095Y-129586952D01*
X267245714Y-129682190D01*
X267293333Y-129729809D01*
X267388571Y-129777428D01*
X267579047Y-129777428D01*
X267674285Y-129729809D01*
X267721904Y-129682190D01*
X267769523Y-129586952D01*
X116198095Y-149158380D02*
X116198095Y-148158380D01*
X116531428Y-148872666D01*
X116864761Y-148158380D01*
X116864761Y-149158380D01*
X117245714Y-148158380D02*
X117912380Y-149158380D01*
X117912380Y-148158380D02*
X117245714Y-149158380D01*
X118198095Y-148158380D02*
X118817142Y-148158380D01*
X118483809Y-148539333D01*
X118626666Y-148539333D01*
X118721904Y-148586952D01*
X118769523Y-148634571D01*
X118817142Y-148729809D01*
X118817142Y-148967904D01*
X118769523Y-149063142D01*
X118721904Y-149110761D01*
X118626666Y-149158380D01*
X118340952Y-149158380D01*
X118245714Y-149110761D01*
X118198095Y-149063142D01*
X119769523Y-149158380D02*
X119198095Y-149158380D01*
X119483809Y-149158380D02*
X119483809Y-148158380D01*
X119388571Y-148301238D01*
X119293333Y-148396476D01*
X119198095Y-148444095D01*
X207198095Y-149158380D02*
X207198095Y-148158380D01*
X207531428Y-148872666D01*
X207864761Y-148158380D01*
X207864761Y-149158380D01*
X208245714Y-148158380D02*
X208912380Y-149158380D01*
X208912380Y-148158380D02*
X208245714Y-149158380D01*
X209198095Y-148158380D02*
X209817142Y-148158380D01*
X209483809Y-148539333D01*
X209626666Y-148539333D01*
X209721904Y-148586952D01*
X209769523Y-148634571D01*
X209817142Y-148729809D01*
X209817142Y-148967904D01*
X209769523Y-149063142D01*
X209721904Y-149110761D01*
X209626666Y-149158380D01*
X209340952Y-149158380D01*
X209245714Y-149110761D01*
X209198095Y-149063142D01*
X210674285Y-148158380D02*
X210483809Y-148158380D01*
X210388571Y-148206000D01*
X210340952Y-148253619D01*
X210245714Y-148396476D01*
X210198095Y-148586952D01*
X210198095Y-148967904D01*
X210245714Y-149063142D01*
X210293333Y-149110761D01*
X210388571Y-149158380D01*
X210579047Y-149158380D01*
X210674285Y-149110761D01*
X210721904Y-149063142D01*
X210769523Y-148967904D01*
X210769523Y-148729809D01*
X210721904Y-148634571D01*
X210674285Y-148586952D01*
X210579047Y-148539333D01*
X210388571Y-148539333D01*
X210293333Y-148586952D01*
X210245714Y-148634571D01*
X210198095Y-148729809D01*
X292221904Y-111158380D02*
X292221904Y-110158380D01*
X292555238Y-110872666D01*
X292888571Y-110158380D01*
X292888571Y-111158380D01*
X293269523Y-110158380D02*
X293936190Y-111158380D01*
X293936190Y-110158380D02*
X293269523Y-111158380D01*
X294840952Y-111158380D02*
X294269523Y-111158380D01*
X294555238Y-111158380D02*
X294555238Y-110158380D01*
X294460000Y-110301238D01*
X294364761Y-110396476D01*
X294269523Y-110444095D01*
X295793333Y-111158380D02*
X295221904Y-111158380D01*
X295507619Y-111158380D02*
X295507619Y-110158380D01*
X295412380Y-110301238D01*
X295317142Y-110396476D01*
X295221904Y-110444095D01*
X296412380Y-110158380D02*
X296507619Y-110158380D01*
X296602857Y-110206000D01*
X296650476Y-110253619D01*
X296698095Y-110348857D01*
X296745714Y-110539333D01*
X296745714Y-110777428D01*
X296698095Y-110967904D01*
X296650476Y-111063142D01*
X296602857Y-111110761D01*
X296507619Y-111158380D01*
X296412380Y-111158380D01*
X296317142Y-111110761D01*
X296269523Y-111063142D01*
X296221904Y-110967904D01*
X296174285Y-110777428D01*
X296174285Y-110539333D01*
X296221904Y-110348857D01*
X296269523Y-110253619D01*
X296317142Y-110206000D01*
X296412380Y-110158380D01*
X311221904Y-111158380D02*
X311221904Y-110158380D01*
X311555238Y-110872666D01*
X311888571Y-110158380D01*
X311888571Y-111158380D01*
X312269523Y-110158380D02*
X312936190Y-111158380D01*
X312936190Y-110158380D02*
X312269523Y-111158380D01*
X313840952Y-111158380D02*
X313269523Y-111158380D01*
X313555238Y-111158380D02*
X313555238Y-110158380D01*
X313460000Y-110301238D01*
X313364761Y-110396476D01*
X313269523Y-110444095D01*
X314793333Y-111158380D02*
X314221904Y-111158380D01*
X314507619Y-111158380D02*
X314507619Y-110158380D01*
X314412380Y-110301238D01*
X314317142Y-110396476D01*
X314221904Y-110444095D01*
X315745714Y-111158380D02*
X315174285Y-111158380D01*
X315460000Y-111158380D02*
X315460000Y-110158380D01*
X315364761Y-110301238D01*
X315269523Y-110396476D01*
X315174285Y-110444095D01*
X330221904Y-111158380D02*
X330221904Y-110158380D01*
X330555238Y-110872666D01*
X330888571Y-110158380D01*
X330888571Y-111158380D01*
X331269523Y-110158380D02*
X331936190Y-111158380D01*
X331936190Y-110158380D02*
X331269523Y-111158380D01*
X332840952Y-111158380D02*
X332269523Y-111158380D01*
X332555238Y-111158380D02*
X332555238Y-110158380D01*
X332460000Y-110301238D01*
X332364761Y-110396476D01*
X332269523Y-110444095D01*
X333793333Y-111158380D02*
X333221904Y-111158380D01*
X333507619Y-111158380D02*
X333507619Y-110158380D01*
X333412380Y-110301238D01*
X333317142Y-110396476D01*
X333221904Y-110444095D01*
X334174285Y-110253619D02*
X334221904Y-110206000D01*
X334317142Y-110158380D01*
X334555238Y-110158380D01*
X334650476Y-110206000D01*
X334698095Y-110253619D01*
X334745714Y-110348857D01*
X334745714Y-110444095D01*
X334698095Y-110586952D01*
X334126666Y-111158380D01*
X334745714Y-111158380D01*
X282721904Y-130158380D02*
X282721904Y-129158380D01*
X283055238Y-129872666D01*
X283388571Y-129158380D01*
X283388571Y-130158380D01*
X283769523Y-129158380D02*
X284436190Y-130158380D01*
X284436190Y-129158380D02*
X283769523Y-130158380D01*
X284769523Y-129253619D02*
X284817142Y-129206000D01*
X284912380Y-129158380D01*
X285150476Y-129158380D01*
X285245714Y-129206000D01*
X285293333Y-129253619D01*
X285340952Y-129348857D01*
X285340952Y-129444095D01*
X285293333Y-129586952D01*
X284721904Y-130158380D01*
X285340952Y-130158380D01*
X286293333Y-130158380D02*
X285721904Y-130158380D01*
X286007619Y-130158380D02*
X286007619Y-129158380D01*
X285912380Y-129301238D01*
X285817142Y-129396476D01*
X285721904Y-129444095D01*
X286912380Y-129158380D02*
X287007619Y-129158380D01*
X287102857Y-129206000D01*
X287150476Y-129253619D01*
X287198095Y-129348857D01*
X287245714Y-129539333D01*
X287245714Y-129777428D01*
X287198095Y-129967904D01*
X287150476Y-130063142D01*
X287102857Y-130110761D01*
X287007619Y-130158380D01*
X286912380Y-130158380D01*
X286817142Y-130110761D01*
X286769523Y-130063142D01*
X286721904Y-129967904D01*
X286674285Y-129777428D01*
X286674285Y-129539333D01*
X286721904Y-129348857D01*
X286769523Y-129253619D01*
X286817142Y-129206000D01*
X286912380Y-129158380D01*
X301721904Y-130158380D02*
X301721904Y-129158380D01*
X302055238Y-129872666D01*
X302388571Y-129158380D01*
X302388571Y-130158380D01*
X302769523Y-129158380D02*
X303436190Y-130158380D01*
X303436190Y-129158380D02*
X302769523Y-130158380D01*
X303769523Y-129253619D02*
X303817142Y-129206000D01*
X303912380Y-129158380D01*
X304150476Y-129158380D01*
X304245714Y-129206000D01*
X304293333Y-129253619D01*
X304340952Y-129348857D01*
X304340952Y-129444095D01*
X304293333Y-129586952D01*
X303721904Y-130158380D01*
X304340952Y-130158380D01*
X305293333Y-130158380D02*
X304721904Y-130158380D01*
X305007619Y-130158380D02*
X305007619Y-129158380D01*
X304912380Y-129301238D01*
X304817142Y-129396476D01*
X304721904Y-129444095D01*
X306245714Y-130158380D02*
X305674285Y-130158380D01*
X305960000Y-130158380D02*
X305960000Y-129158380D01*
X305864761Y-129301238D01*
X305769523Y-129396476D01*
X305674285Y-129444095D01*
X102698095Y-111158380D02*
X102698095Y-110158380D01*
X103031428Y-110872666D01*
X103364761Y-110158380D01*
X103364761Y-111158380D01*
X103745714Y-110158380D02*
X104412380Y-111158380D01*
X104412380Y-110158380D02*
X103745714Y-111158380D01*
X105317142Y-111158380D02*
X104745714Y-111158380D01*
X105031428Y-111158380D02*
X105031428Y-110158380D01*
X104936190Y-110301238D01*
X104840952Y-110396476D01*
X104745714Y-110444095D01*
X105936190Y-110158380D02*
X106031428Y-110158380D01*
X106126666Y-110206000D01*
X106174285Y-110253619D01*
X106221904Y-110348857D01*
X106269523Y-110539333D01*
X106269523Y-110777428D01*
X106221904Y-110967904D01*
X106174285Y-111063142D01*
X106126666Y-111110761D01*
X106031428Y-111158380D01*
X105936190Y-111158380D01*
X105840952Y-111110761D01*
X105793333Y-111063142D01*
X105745714Y-110967904D01*
X105698095Y-110777428D01*
X105698095Y-110539333D01*
X105745714Y-110348857D01*
X105793333Y-110253619D01*
X105840952Y-110206000D01*
X105936190Y-110158380D01*
X320721904Y-130158380D02*
X320721904Y-129158380D01*
X321055238Y-129872666D01*
X321388571Y-129158380D01*
X321388571Y-130158380D01*
X321769523Y-129158380D02*
X322436190Y-130158380D01*
X322436190Y-129158380D02*
X321769523Y-130158380D01*
X322769523Y-129253619D02*
X322817142Y-129206000D01*
X322912380Y-129158380D01*
X323150476Y-129158380D01*
X323245714Y-129206000D01*
X323293333Y-129253619D01*
X323340952Y-129348857D01*
X323340952Y-129444095D01*
X323293333Y-129586952D01*
X322721904Y-130158380D01*
X323340952Y-130158380D01*
X324293333Y-130158380D02*
X323721904Y-130158380D01*
X324007619Y-130158380D02*
X324007619Y-129158380D01*
X323912380Y-129301238D01*
X323817142Y-129396476D01*
X323721904Y-129444095D01*
X324626666Y-129158380D02*
X325245714Y-129158380D01*
X324912380Y-129539333D01*
X325055238Y-129539333D01*
X325150476Y-129586952D01*
X325198095Y-129634571D01*
X325245714Y-129729809D01*
X325245714Y-129967904D01*
X325198095Y-130063142D01*
X325150476Y-130110761D01*
X325055238Y-130158380D01*
X324769523Y-130158380D01*
X324674285Y-130110761D01*
X324626666Y-130063142D01*
X297721904Y-149158380D02*
X297721904Y-148158380D01*
X298055238Y-148872666D01*
X298388571Y-148158380D01*
X298388571Y-149158380D01*
X298769523Y-148158380D02*
X299436190Y-149158380D01*
X299436190Y-148158380D02*
X298769523Y-149158380D01*
X299721904Y-148158380D02*
X300340952Y-148158380D01*
X300007619Y-148539333D01*
X300150476Y-148539333D01*
X300245714Y-148586952D01*
X300293333Y-148634571D01*
X300340952Y-148729809D01*
X300340952Y-148967904D01*
X300293333Y-149063142D01*
X300245714Y-149110761D01*
X300150476Y-149158380D01*
X299864761Y-149158380D01*
X299769523Y-149110761D01*
X299721904Y-149063142D01*
X301293333Y-149158380D02*
X300721904Y-149158380D01*
X301007619Y-149158380D02*
X301007619Y-148158380D01*
X300912380Y-148301238D01*
X300817142Y-148396476D01*
X300721904Y-148444095D01*
X301912380Y-148158380D02*
X302007619Y-148158380D01*
X302102857Y-148206000D01*
X302150476Y-148253619D01*
X302198095Y-148348857D01*
X302245714Y-148539333D01*
X302245714Y-148777428D01*
X302198095Y-148967904D01*
X302150476Y-149063142D01*
X302102857Y-149110761D01*
X302007619Y-149158380D01*
X301912380Y-149158380D01*
X301817142Y-149110761D01*
X301769523Y-149063142D01*
X301721904Y-148967904D01*
X301674285Y-148777428D01*
X301674285Y-148539333D01*
X301721904Y-148348857D01*
X301769523Y-148253619D01*
X301817142Y-148206000D01*
X301912380Y-148158380D01*
X83698095Y-111158380D02*
X83698095Y-110158380D01*
X84031428Y-110872666D01*
X84364761Y-110158380D01*
X84364761Y-111158380D01*
X84745714Y-110158380D02*
X85412380Y-111158380D01*
X85412380Y-110158380D02*
X84745714Y-111158380D01*
X85698095Y-110158380D02*
X86317142Y-110158380D01*
X85983809Y-110539333D01*
X86126666Y-110539333D01*
X86221904Y-110586952D01*
X86269523Y-110634571D01*
X86317142Y-110729809D01*
X86317142Y-110967904D01*
X86269523Y-111063142D01*
X86221904Y-111110761D01*
X86126666Y-111158380D01*
X85840952Y-111158380D01*
X85745714Y-111110761D01*
X85698095Y-111063142D01*
X86936190Y-110158380D02*
X87031428Y-110158380D01*
X87126666Y-110206000D01*
X87174285Y-110253619D01*
X87221904Y-110348857D01*
X87269523Y-110539333D01*
X87269523Y-110777428D01*
X87221904Y-110967904D01*
X87174285Y-111063142D01*
X87126666Y-111110761D01*
X87031428Y-111158380D01*
X86936190Y-111158380D01*
X86840952Y-111110761D01*
X86793333Y-111063142D01*
X86745714Y-110967904D01*
X86698095Y-110777428D01*
X86698095Y-110539333D01*
X86745714Y-110348857D01*
X86793333Y-110253619D01*
X86840952Y-110206000D01*
X86936190Y-110158380D01*
X93666666Y-106602380D02*
X93666666Y-105602380D01*
X94000000Y-106316666D01*
X94333333Y-105602380D01*
X94333333Y-106602380D01*
X94809523Y-106602380D02*
X94809523Y-105602380D01*
X94809523Y-106078571D02*
X95380952Y-106078571D01*
X95380952Y-106602380D02*
X95380952Y-105602380D01*
X96380952Y-106602380D02*
X95809523Y-106602380D01*
X96095238Y-106602380D02*
X96095238Y-105602380D01*
X96000000Y-105745238D01*
X95904761Y-105840476D01*
X95809523Y-105888095D01*
X287916666Y-158602380D02*
X287916666Y-157602380D01*
X288250000Y-158316666D01*
X288583333Y-157602380D01*
X288583333Y-158602380D01*
X289059523Y-158602380D02*
X289059523Y-157602380D01*
X289059523Y-158078571D02*
X289630952Y-158078571D01*
X289630952Y-158602380D02*
X289630952Y-157602380D01*
X290011904Y-157602380D02*
X290678571Y-157602380D01*
X290250000Y-158602380D01*
%LPC*%
D12*
X207250000Y-127350000D03*
X210650000Y-127350000D03*
X210650000Y-128750000D03*
X207250000Y-128750000D03*
D13*
X144540000Y-156580000D03*
X134380000Y-156580000D03*
D14*
X139460000Y-156580000D03*
D15*
X135650000Y-154040000D03*
X142000000Y-151500000D03*
D13*
X168540000Y-156580000D03*
X158380000Y-156580000D03*
D14*
X163460000Y-156580000D03*
D15*
X159650000Y-154040000D03*
X166000000Y-151500000D03*
D13*
X259540000Y-156580000D03*
X249380000Y-156580000D03*
D14*
X254460000Y-156580000D03*
D15*
X250650000Y-154040000D03*
X257000000Y-151500000D03*
D13*
X192540000Y-156580000D03*
X182380000Y-156580000D03*
D14*
X187460000Y-156580000D03*
D15*
X183650000Y-154040000D03*
X190000000Y-151500000D03*
D13*
X235540000Y-156580000D03*
X225380000Y-156580000D03*
D14*
X230460000Y-156580000D03*
D15*
X226650000Y-154040000D03*
X233000000Y-151500000D03*
D13*
X283540000Y-156580000D03*
X273380000Y-156580000D03*
D14*
X278460000Y-156580000D03*
D15*
X274650000Y-154040000D03*
X281000000Y-151500000D03*
D13*
X100240000Y-99580000D03*
X90080000Y-99580000D03*
D14*
X95160000Y-99580000D03*
D15*
X91350000Y-97040000D03*
X97700000Y-94500000D03*
D13*
X166580000Y-118580000D03*
X156420000Y-118580000D03*
D14*
X161500000Y-118580000D03*
D15*
X157690000Y-116040000D03*
X164040000Y-113500000D03*
D13*
X124040000Y-99580000D03*
X113880000Y-99580000D03*
D14*
X118960000Y-99580000D03*
D15*
X115150000Y-97040000D03*
X121500000Y-94500000D03*
D13*
X143040000Y-99580000D03*
X132880000Y-99580000D03*
D14*
X137960000Y-99580000D03*
D15*
X134150000Y-97040000D03*
X140500000Y-94500000D03*
D13*
X162040000Y-99580000D03*
X151880000Y-99580000D03*
D14*
X156960000Y-99580000D03*
D15*
X153150000Y-97040000D03*
X159500000Y-94500000D03*
D13*
X181040000Y-99580000D03*
X170880000Y-99580000D03*
D14*
X175960000Y-99580000D03*
D15*
X172150000Y-97040000D03*
X178500000Y-94500000D03*
D13*
X200040000Y-99580000D03*
X189880000Y-99580000D03*
D14*
X194960000Y-99580000D03*
D15*
X191150000Y-97040000D03*
X197500000Y-94500000D03*
D13*
X219040000Y-99580000D03*
X208880000Y-99580000D03*
D14*
X213960000Y-99580000D03*
D15*
X210150000Y-97040000D03*
X216500000Y-94500000D03*
D13*
X238040000Y-99580000D03*
X227880000Y-99580000D03*
D14*
X232960000Y-99580000D03*
D15*
X229150000Y-97040000D03*
X235500000Y-94500000D03*
D13*
X257080000Y-99580000D03*
X246920000Y-99580000D03*
D14*
X252000000Y-99580000D03*
D15*
X248190000Y-97040000D03*
X254540000Y-94500000D03*
D13*
X276040000Y-99580000D03*
X265880000Y-99580000D03*
D14*
X270960000Y-99580000D03*
D15*
X267150000Y-97040000D03*
X273500000Y-94500000D03*
D13*
X295040000Y-99580000D03*
X284880000Y-99580000D03*
D14*
X289960000Y-99580000D03*
D15*
X286150000Y-97040000D03*
X292500000Y-94500000D03*
D13*
X314040000Y-99580000D03*
X303880000Y-99580000D03*
D14*
X308960000Y-99580000D03*
D15*
X305150000Y-97040000D03*
X311500000Y-94500000D03*
D13*
X128540000Y-118580000D03*
X118380000Y-118580000D03*
D14*
X123460000Y-118580000D03*
D15*
X119650000Y-116040000D03*
X126000000Y-113500000D03*
D13*
X333080000Y-99580000D03*
X322920000Y-99580000D03*
D14*
X328000000Y-99580000D03*
D15*
X324190000Y-97040000D03*
X330540000Y-94500000D03*
D13*
X147540000Y-118580000D03*
X137380000Y-118580000D03*
D14*
X142460000Y-118580000D03*
D15*
X138650000Y-116040000D03*
X145000000Y-113500000D03*
D13*
X185540000Y-118580000D03*
X175380000Y-118580000D03*
D14*
X180460000Y-118580000D03*
D15*
X176650000Y-116040000D03*
X183000000Y-113500000D03*
D13*
X204540000Y-118580000D03*
X194380000Y-118580000D03*
D14*
X199460000Y-118580000D03*
D15*
X195650000Y-116040000D03*
X202000000Y-113500000D03*
D13*
X223540000Y-118580000D03*
X213380000Y-118580000D03*
D14*
X218460000Y-118580000D03*
D15*
X214650000Y-116040000D03*
X221000000Y-113500000D03*
D13*
X242540000Y-118580000D03*
X232380000Y-118580000D03*
D14*
X237460000Y-118580000D03*
D15*
X233650000Y-116040000D03*
X240000000Y-113500000D03*
D13*
X261390000Y-118540000D03*
X251230000Y-118540000D03*
D14*
X256310000Y-118540000D03*
D15*
X252500000Y-116000000D03*
X258850000Y-113460000D03*
D13*
X280540000Y-118580000D03*
X270380000Y-118580000D03*
D14*
X275460000Y-118580000D03*
D15*
X271650000Y-116040000D03*
X278000000Y-113500000D03*
D13*
X100040000Y-137580000D03*
X89880000Y-137580000D03*
D14*
X94960000Y-137580000D03*
D15*
X91150000Y-135040000D03*
X97500000Y-132500000D03*
D13*
X119040000Y-137580000D03*
X108880000Y-137580000D03*
D14*
X113960000Y-137580000D03*
D15*
X110150000Y-135040000D03*
X116500000Y-132500000D03*
D13*
X138040000Y-137580000D03*
X127880000Y-137580000D03*
D14*
X132960000Y-137580000D03*
D15*
X129150000Y-135040000D03*
X135500000Y-132500000D03*
D13*
X157040000Y-137580000D03*
X146880000Y-137580000D03*
D14*
X151960000Y-137580000D03*
D15*
X148150000Y-135040000D03*
X154500000Y-132500000D03*
D13*
X176040000Y-137580000D03*
X165880000Y-137580000D03*
D14*
X170960000Y-137580000D03*
D15*
X167150000Y-135040000D03*
X173500000Y-132500000D03*
D13*
X195040000Y-137580000D03*
X184880000Y-137580000D03*
D14*
X189960000Y-137580000D03*
D15*
X186150000Y-135040000D03*
X192500000Y-132500000D03*
D13*
X214040000Y-137580000D03*
X203880000Y-137580000D03*
D14*
X208960000Y-137580000D03*
D15*
X205150000Y-135040000D03*
X211500000Y-132500000D03*
D13*
X233040000Y-137580000D03*
X222880000Y-137580000D03*
D14*
X227960000Y-137580000D03*
D15*
X224150000Y-135040000D03*
X230500000Y-132500000D03*
D13*
X252040000Y-137580000D03*
X241880000Y-137580000D03*
D14*
X246960000Y-137580000D03*
D15*
X243150000Y-135040000D03*
X249500000Y-132500000D03*
D13*
X271040000Y-137580000D03*
X260880000Y-137580000D03*
D14*
X265960000Y-137580000D03*
D15*
X262150000Y-135040000D03*
X268500000Y-132500000D03*
D13*
X123040000Y-156580000D03*
X112880000Y-156580000D03*
D14*
X117960000Y-156580000D03*
D15*
X114150000Y-154040000D03*
X120500000Y-151500000D03*
D13*
X214040000Y-156580000D03*
X203880000Y-156580000D03*
D14*
X208960000Y-156580000D03*
D15*
X205150000Y-154040000D03*
X211500000Y-151500000D03*
D13*
X299540000Y-118580000D03*
X289380000Y-118580000D03*
D14*
X294460000Y-118580000D03*
D15*
X290650000Y-116040000D03*
X297000000Y-113500000D03*
D13*
X318540000Y-118580000D03*
X308380000Y-118580000D03*
D14*
X313460000Y-118580000D03*
D15*
X309650000Y-116040000D03*
X316000000Y-113500000D03*
D13*
X337540000Y-118580000D03*
X327380000Y-118580000D03*
D14*
X332460000Y-118580000D03*
D15*
X328650000Y-116040000D03*
X335000000Y-113500000D03*
D13*
X290040000Y-137580000D03*
X279880000Y-137580000D03*
D14*
X284960000Y-137580000D03*
D15*
X281150000Y-135040000D03*
X287500000Y-132500000D03*
D13*
X309040000Y-137580000D03*
X298880000Y-137580000D03*
D14*
X303960000Y-137580000D03*
D15*
X300150000Y-135040000D03*
X306500000Y-132500000D03*
D13*
X109540000Y-118580000D03*
X99380000Y-118580000D03*
D14*
X104460000Y-118580000D03*
D15*
X100650000Y-116040000D03*
X107000000Y-113500000D03*
D13*
X328040000Y-137580000D03*
X317880000Y-137580000D03*
D14*
X322960000Y-137580000D03*
D15*
X319150000Y-135040000D03*
X325500000Y-132500000D03*
D13*
X305040000Y-156580000D03*
X294880000Y-156580000D03*
D14*
X299960000Y-156580000D03*
D15*
X296150000Y-154040000D03*
X302500000Y-151500000D03*
D13*
X90540000Y-118580000D03*
X80380000Y-118580000D03*
D14*
X85460000Y-118580000D03*
D15*
X81650000Y-116040000D03*
X88000000Y-113500000D03*
D16*
X111245000Y-94465000D03*
X102595000Y-94465000D03*
D17*
X111245000Y-97845000D03*
X102595000Y-97845000D03*
D18*
X109900000Y-97500000D03*
X109050000Y-97500000D03*
X108200000Y-97500000D03*
X107350000Y-97500000D03*
X106500000Y-97500000D03*
X105650000Y-97500000D03*
X104800000Y-97500000D03*
X103945000Y-97500000D03*
X109895000Y-98825000D03*
X109045000Y-98825000D03*
X108195000Y-98825000D03*
X107345000Y-98825000D03*
X106495000Y-98825000D03*
X104795000Y-98825000D03*
X103945000Y-98825000D03*
X105645000Y-98825000D03*
D19*
X197500000Y-110500000D03*
D20*
X197500000Y-107960000D03*
X194960000Y-110500000D03*
X194960000Y-107960000D03*
X192420000Y-110500000D03*
X192420000Y-107960000D03*
D21*
X247000000Y-109500000D03*
X171000000Y-109500000D03*
X128750000Y-161500000D03*
X323000000Y-109500000D03*
X219750000Y-161500000D03*
X95000000Y-109500000D03*
X289250000Y-161500000D03*
M02*
