M48
;DRILL file {KiCad 5.0.2+dfsg1-1} date Tue 26 May 2020 11:49:10 PM EDT
;FORMAT={-:-/ absolute / inch / decimal}
FMAT,2
INCH,TZ
T1C0.0669
T2C0.1063
T3C0.1575
%
G90
G05
T1
X8.4008Y-4.6685
X8.8008Y-4.6685
X9.8181Y-6.1646
X10.2181Y-6.1646
X9.5228Y-5.4165
X9.9228Y-5.4165
X8.2236Y-3.9205
X8.6236Y-3.9205
X7.6528Y-4.6685
X8.0528Y-4.6685
X12.515Y-5.4165
X12.915Y-5.4165
X6.7276Y-3.9205
X7.1276Y-3.9205
X6.1583Y-4.6685
X6.5583Y-4.6685
X8.7748Y-5.4165
X9.1748Y-5.4165
X12.889Y-4.6685
X13.289Y-4.6685
X11.9638Y-3.9205
X12.3638Y-3.9205
X4.6606Y-4.6685
X5.0606Y-4.6685
X11.2157Y-3.9205
X11.6157Y-3.9205
X8.0268Y-5.4165
X8.4268Y-5.4165
X3.1646Y-4.6685
X3.5646Y-4.6685
X10.2709Y-5.4165
X10.6709Y-5.4165
X6.9047Y-4.6685
X7.3047Y-4.6685
X6.5307Y-5.4165
X6.9307Y-5.4165
X8.9717Y-3.9205
X9.3717Y-3.9205
X9.7213Y-3.9205
X10.1213Y-3.9205
X10.4677Y-3.9205
X10.8677Y-3.9205
X3.9126Y-4.6685
X4.3126Y-4.6685
X12.1409Y-4.6685
X12.5409Y-4.6685
X5.2906Y-6.1646
X5.6906Y-6.1646
X5.2315Y-3.9205
X5.6315Y-3.9205
X7.4756Y-3.9205
X7.8756Y-3.9205
X7.2787Y-5.4165
X7.6787Y-5.4165
X11.6094Y-6.1646
X12.0094Y-6.1646
X4.2866Y-5.4165
X4.6866Y-5.4165
X3.5386Y-5.4165
X3.9386Y-5.4165
X3.5465Y-3.9205
X3.9465Y-3.9205
X5.4087Y-4.6685
X5.8087Y-4.6685
X5.9795Y-3.9205
X6.3795Y-3.9205
X11.7669Y-5.4165
X12.1669Y-5.4165
X6.2354Y-6.1646
X6.6354Y-6.1646
X11.3929Y-4.6685
X11.7929Y-4.6685
X9.1488Y-4.6685
X9.5488Y-4.6685
X7.1803Y-6.1646
X7.5803Y-6.1646
X11.0189Y-5.4165
X11.4189Y-5.4165
X5.7827Y-5.4165
X6.1827Y-5.4165
X10.6449Y-4.6685
X11.0449Y-4.6685
X4.4835Y-3.9205
X4.8835Y-3.9205
X9.8909Y-4.6669
X10.2909Y-4.6669
X8.0268Y-6.1646
X8.4268Y-6.1646
X12.7134Y-3.9205
X13.1134Y-3.9205
X10.763Y-6.1646
X11.163Y-6.1646
X5.0346Y-5.4165
X5.4346Y-5.4165
X8.8732Y-6.1646
X9.2732Y-6.1646
X4.4441Y-6.1646
X4.8441Y-6.1646
T2
X5.0689Y-6.3583
X8.6516Y-6.3583
X11.3878Y-6.3583
X12.7165Y-4.311
X3.7402Y-4.311
X6.7323Y-4.311
X9.7244Y-4.311
T3
X10.963Y-6.1646
X5.2346Y-5.4165
X9.0732Y-6.1646
X4.6441Y-6.1646
X8.6008Y-4.6685
X10.0181Y-6.1646
X9.7228Y-5.4165
X8.4236Y-3.9205
X7.8528Y-4.6685
X12.715Y-5.4165
X6.9276Y-3.9205
X6.3583Y-4.6685
X8.9748Y-5.4165
X13.089Y-4.6685
X12.1638Y-3.9205
X4.8606Y-4.6685
X11.4157Y-3.9205
X8.2268Y-5.4165
X3.3646Y-4.6685
X10.4709Y-5.4165
X7.1047Y-4.6685
X6.7307Y-5.4165
X9.1717Y-3.9205
X9.9213Y-3.9205
X10.6677Y-3.9205
X4.1126Y-4.6685
X12.3409Y-4.6685
X5.4906Y-6.1646
X5.4315Y-3.9205
X7.6756Y-3.9205
X7.4787Y-5.4165
X11.8094Y-6.1646
X4.4866Y-5.4165
X3.7386Y-5.4165
X3.7465Y-3.9205
X5.6087Y-4.6685
X6.1795Y-3.9205
X11.9669Y-5.4165
X6.4354Y-6.1646
X11.5929Y-4.6685
X9.3488Y-4.6685
X7.3803Y-6.1646
X11.2189Y-5.4165
X5.9827Y-5.4165
X10.8449Y-4.6685
X4.6835Y-3.9205
X10.0909Y-4.6669
X8.2268Y-6.1646
X12.9134Y-3.9205
T0
M30
